# 3ds Max Wavefront OBJ Exporter v0.97b - (c)2007 guruware
# File Created: 21.01.2017 15:28:08

#
# object Eye
#

v  0.0000 0.1755 -0.0000
v  -0.0000 0.1721 -0.0342
v  -0.0067 0.1721 -0.0336
v  -0.0131 0.1721 -0.0316
v  -0.0190 0.1721 -0.0285
v  -0.0242 0.1721 -0.0242
v  -0.0285 0.1721 -0.0190
v  -0.0316 0.1721 -0.0131
v  -0.0336 0.1721 -0.0067
v  -0.0342 0.1721 0.0000
v  -0.0336 0.1721 0.0067
v  -0.0316 0.1721 0.0131
v  -0.0285 0.1721 0.0190
v  -0.0242 0.1721 0.0242
v  -0.0190 0.1721 0.0285
v  -0.0131 0.1721 0.0316
v  -0.0067 0.1721 0.0336
v  0.0000 0.1721 0.0342
v  0.0067 0.1721 0.0336
v  0.0131 0.1721 0.0316
v  0.0190 0.1721 0.0285
v  0.0242 0.1721 0.0242
v  0.0285 0.1721 0.0190
v  0.0316 0.1721 0.0131
v  0.0336 0.1721 0.0067
v  0.0342 0.1721 -0.0000
v  0.0336 0.1721 -0.0067
v  0.0316 0.1721 -0.0131
v  0.0285 0.1721 -0.0190
v  0.0242 0.1721 -0.0242
v  0.0190 0.1721 -0.0285
v  0.0131 0.1721 -0.0316
v  0.0067 0.1721 -0.0336
v  -0.0000 0.1622 -0.0672
v  -0.0131 0.1622 -0.0659
v  -0.0257 0.1622 -0.0621
v  -0.0373 0.1622 -0.0558
v  -0.0475 0.1622 -0.0475
v  -0.0558 0.1622 -0.0373
v  -0.0621 0.1622 -0.0257
v  -0.0659 0.1622 -0.0131
v  -0.0672 0.1622 0.0000
v  -0.0659 0.1622 0.0131
v  -0.0621 0.1622 0.0257
v  -0.0558 0.1622 0.0373
v  -0.0475 0.1622 0.0475
v  -0.0373 0.1622 0.0558
v  -0.0257 0.1622 0.0621
v  -0.0131 0.1622 0.0659
v  0.0000 0.1622 0.0672
v  0.0131 0.1622 0.0659
v  0.0257 0.1622 0.0621
v  0.0373 0.1622 0.0558
v  0.0475 0.1622 0.0475
v  0.0558 0.1622 0.0373
v  0.0621 0.1622 0.0257
v  0.0659 0.1622 0.0131
v  0.0672 0.1622 -0.0000
v  0.0659 0.1622 -0.0131
v  0.0621 0.1622 -0.0257
v  0.0558 0.1622 -0.0373
v  0.0475 0.1622 -0.0475
v  0.0373 0.1622 -0.0558
v  0.0257 0.1622 -0.0621
v  0.0131 0.1622 -0.0659
v  -0.0000 0.1459 -0.0975
v  -0.0190 0.1459 -0.0956
v  -0.0373 0.1459 -0.0901
v  -0.0542 0.1459 -0.0811
v  -0.0690 0.1459 -0.0690
v  -0.0811 0.1459 -0.0542
v  -0.0901 0.1459 -0.0373
v  -0.0956 0.1459 -0.0190
v  -0.0975 0.1459 0.0000
v  -0.0956 0.1459 0.0190
v  -0.0901 0.1459 0.0373
v  -0.0811 0.1459 0.0542
v  -0.0690 0.1459 0.0690
v  -0.0542 0.1459 0.0811
v  -0.0373 0.1459 0.0901
v  -0.0190 0.1459 0.0956
v  0.0000 0.1459 0.0975
v  0.0190 0.1459 0.0956
v  0.0373 0.1459 0.0901
v  0.0542 0.1459 0.0811
v  0.0690 0.1459 0.0690
v  0.0811 0.1459 0.0542
v  0.0901 0.1459 0.0373
v  0.0956 0.1459 0.0190
v  0.0975 0.1459 -0.0000
v  0.0956 0.1459 -0.0190
v  0.0901 0.1459 -0.0373
v  0.0811 0.1459 -0.0542
v  0.0690 0.1459 -0.0690
v  0.0542 0.1459 -0.0811
v  0.0373 0.1459 -0.0901
v  0.0190 0.1459 -0.0956
v  -0.0000 0.1241 -0.1241
v  -0.0242 0.1241 -0.1217
v  -0.0475 0.1241 -0.1147
v  -0.0690 0.1241 -0.1032
v  -0.0878 0.1241 -0.0878
v  -0.1032 0.1241 -0.0690
v  -0.1147 0.1241 -0.0475
v  -0.1217 0.1241 -0.0242
v  -0.1241 0.1241 0.0000
v  -0.1217 0.1241 0.0242
v  -0.1147 0.1241 0.0475
v  -0.1032 0.1241 0.0690
v  -0.0878 0.1241 0.0878
v  -0.0690 0.1241 0.1032
v  -0.0475 0.1241 0.1147
v  -0.0242 0.1241 0.1217
v  0.0000 0.1241 0.1241
v  0.0242 0.1241 0.1217
v  0.0475 0.1241 0.1147
v  0.0690 0.1241 0.1032
v  0.0878 0.1241 0.0878
v  0.1032 0.1241 0.0690
v  0.1147 0.1241 0.0475
v  0.1217 0.1241 0.0242
v  0.1241 0.1241 -0.0000
v  0.1217 0.1241 -0.0242
v  0.1147 0.1241 -0.0475
v  0.1032 0.1241 -0.0690
v  0.0878 0.1241 -0.0878
v  0.0690 0.1241 -0.1032
v  0.0475 0.1241 -0.1147
v  0.0242 0.1241 -0.1217
v  -0.0000 0.0975 -0.1459
v  -0.0285 0.0975 -0.1431
v  -0.0558 0.0975 -0.1348
v  -0.0811 0.0975 -0.1213
v  -0.1032 0.0975 -0.1032
v  -0.1213 0.0975 -0.0811
v  -0.1348 0.0975 -0.0558
v  -0.1431 0.0975 -0.0285
v  -0.1459 0.0975 0.0000
v  -0.1431 0.0975 0.0285
v  -0.1348 0.0975 0.0558
v  -0.1213 0.0975 0.0811
v  -0.1032 0.0975 0.1032
v  -0.0811 0.0975 0.1213
v  -0.0558 0.0975 0.1348
v  -0.0285 0.0975 0.1431
v  0.0000 0.0975 0.1459
v  0.0285 0.0975 0.1431
v  0.0558 0.0975 0.1348
v  0.0811 0.0975 0.1213
v  0.1032 0.0975 0.1032
v  0.1213 0.0975 0.0811
v  0.1348 0.0975 0.0558
v  0.1431 0.0975 0.0285
v  0.1459 0.0975 -0.0000
v  0.1431 0.0975 -0.0285
v  0.1348 0.0975 -0.0558
v  0.1213 0.0975 -0.0811
v  0.1032 0.0975 -0.1032
v  0.0811 0.0975 -0.1213
v  0.0558 0.0975 -0.1348
v  0.0285 0.0975 -0.1431
v  -0.0000 0.0672 -0.1622
v  -0.0316 0.0672 -0.1590
v  -0.0621 0.0672 -0.1498
v  -0.0901 0.0672 -0.1348
v  -0.1147 0.0672 -0.1147
v  -0.1348 0.0672 -0.0901
v  -0.1498 0.0672 -0.0621
v  -0.1590 0.0672 -0.0316
v  -0.1622 0.0672 0.0000
v  -0.1590 0.0672 0.0316
v  -0.1498 0.0672 0.0621
v  -0.1348 0.0672 0.0901
v  -0.1147 0.0672 0.1147
v  -0.0901 0.0672 0.1348
v  -0.0621 0.0672 0.1498
v  -0.0316 0.0672 0.1590
v  0.0000 0.0672 0.1622
v  0.0316 0.0672 0.1590
v  0.0621 0.0672 0.1498
v  0.0901 0.0672 0.1348
v  0.1147 0.0672 0.1147
v  0.1348 0.0672 0.0901
v  0.1498 0.0672 0.0621
v  0.1590 0.0672 0.0316
v  0.1622 0.0672 -0.0000
v  0.1590 0.0672 -0.0316
v  0.1498 0.0672 -0.0621
v  0.1348 0.0672 -0.0901
v  0.1147 0.0672 -0.1147
v  0.0901 0.0672 -0.1348
v  0.0621 0.0672 -0.1498
v  0.0316 0.0672 -0.1590
v  -0.0000 0.0342 -0.1721
v  -0.0336 0.0342 -0.1688
v  -0.0659 0.0342 -0.1590
v  -0.0956 0.0342 -0.1431
v  -0.1217 0.0342 -0.1217
v  -0.1431 0.0342 -0.0956
v  -0.1590 0.0342 -0.0659
v  -0.1688 0.0342 -0.0336
v  -0.1721 0.0342 0.0000
v  -0.1688 0.0342 0.0336
v  -0.1590 0.0342 0.0659
v  -0.1431 0.0342 0.0956
v  -0.1217 0.0342 0.1217
v  -0.0956 0.0342 0.1431
v  -0.0659 0.0342 0.1590
v  -0.0336 0.0342 0.1688
v  0.0000 0.0342 0.1721
v  0.0336 0.0342 0.1688
v  0.0659 0.0342 0.1590
v  0.0956 0.0342 0.1431
v  0.1217 0.0342 0.1217
v  0.1431 0.0342 0.0956
v  0.1590 0.0342 0.0659
v  0.1688 0.0342 0.0336
v  0.1721 0.0342 -0.0000
v  0.1688 0.0342 -0.0336
v  0.1590 0.0342 -0.0659
v  0.1431 0.0342 -0.0956
v  0.1217 0.0342 -0.1217
v  0.0956 0.0342 -0.1431
v  0.0659 0.0342 -0.1590
v  0.0336 0.0342 -0.1688
v  -0.0000 0.0000 -0.1755
v  -0.0342 0.0000 -0.1721
v  -0.0672 0.0000 -0.1622
v  -0.0975 0.0000 -0.1459
v  -0.1241 0.0000 -0.1241
v  -0.1459 0.0000 -0.0975
v  -0.1622 0.0000 -0.0672
v  -0.1721 0.0000 -0.0342
v  -0.1755 0.0000 0.0000
v  -0.1721 0.0000 0.0342
v  -0.1622 0.0000 0.0672
v  -0.1459 0.0000 0.0975
v  -0.1241 0.0000 0.1241
v  -0.0975 0.0000 0.1459
v  -0.0672 0.0000 0.1622
v  -0.0342 0.0000 0.1721
v  0.0000 0.0000 0.1755
v  0.0342 0.0000 0.1721
v  0.0672 0.0000 0.1622
v  0.0975 0.0000 0.1459
v  0.1241 0.0000 0.1241
v  0.1459 0.0000 0.0975
v  0.1622 0.0000 0.0672
v  0.1721 0.0000 0.0342
v  0.1755 0.0000 -0.0000
v  0.1721 0.0000 -0.0342
v  0.1622 0.0000 -0.0672
v  0.1459 0.0000 -0.0975
v  0.1241 0.0000 -0.1241
v  0.0975 0.0000 -0.1459
v  0.0672 0.0000 -0.1622
v  0.0342 0.0000 -0.1721
v  -0.0000 -0.0342 -0.1721
v  -0.0336 -0.0342 -0.1688
v  -0.0659 -0.0342 -0.1590
v  -0.0956 -0.0342 -0.1431
v  -0.1217 -0.0342 -0.1217
v  -0.1431 -0.0342 -0.0956
v  -0.1590 -0.0342 -0.0659
v  -0.1688 -0.0342 -0.0336
v  -0.1721 -0.0342 0.0000
v  -0.1688 -0.0342 0.0336
v  -0.1590 -0.0342 0.0659
v  -0.1431 -0.0342 0.0956
v  -0.1217 -0.0342 0.1217
v  -0.0956 -0.0342 0.1431
v  -0.0659 -0.0342 0.1590
v  -0.0336 -0.0342 0.1688
v  0.0000 -0.0342 0.1721
v  0.0336 -0.0342 0.1688
v  0.0659 -0.0342 0.1590
v  0.0956 -0.0342 0.1431
v  0.1217 -0.0342 0.1217
v  0.1431 -0.0342 0.0956
v  0.1590 -0.0342 0.0659
v  0.1688 -0.0342 0.0336
v  0.1721 -0.0342 -0.0000
v  0.1688 -0.0342 -0.0336
v  0.1590 -0.0342 -0.0659
v  0.1431 -0.0342 -0.0956
v  0.1217 -0.0342 -0.1217
v  0.0956 -0.0342 -0.1431
v  0.0659 -0.0342 -0.1590
v  0.0336 -0.0342 -0.1688
v  -0.0000 -0.0672 -0.1622
v  -0.0316 -0.0672 -0.1590
v  -0.0621 -0.0672 -0.1498
v  -0.0901 -0.0672 -0.1348
v  -0.1147 -0.0672 -0.1147
v  -0.1348 -0.0672 -0.0901
v  -0.1498 -0.0672 -0.0621
v  -0.1590 -0.0672 -0.0316
v  -0.1622 -0.0672 0.0000
v  -0.1590 -0.0672 0.0316
v  -0.1498 -0.0672 0.0621
v  -0.1348 -0.0672 0.0901
v  -0.1147 -0.0672 0.1147
v  -0.0901 -0.0672 0.1348
v  -0.0621 -0.0672 0.1498
v  -0.0316 -0.0672 0.1590
v  0.0000 -0.0672 0.1622
v  0.0316 -0.0672 0.1590
v  0.0621 -0.0672 0.1498
v  0.0901 -0.0672 0.1348
v  0.1147 -0.0672 0.1147
v  0.1348 -0.0672 0.0901
v  0.1498 -0.0672 0.0621
v  0.1590 -0.0672 0.0316
v  0.1622 -0.0672 -0.0000
v  0.1590 -0.0672 -0.0316
v  0.1498 -0.0672 -0.0621
v  0.1348 -0.0672 -0.0901
v  0.1147 -0.0672 -0.1147
v  0.0901 -0.0672 -0.1348
v  0.0621 -0.0672 -0.1498
v  0.0316 -0.0672 -0.1590
v  -0.0000 -0.0975 -0.1459
v  -0.0285 -0.0975 -0.1431
v  -0.0558 -0.0975 -0.1348
v  -0.0811 -0.0975 -0.1213
v  -0.1032 -0.0975 -0.1032
v  -0.1213 -0.0975 -0.0811
v  -0.1348 -0.0975 -0.0558
v  -0.1431 -0.0975 -0.0285
v  -0.1459 -0.0975 0.0000
v  -0.1431 -0.0975 0.0285
v  -0.1348 -0.0975 0.0558
v  -0.1213 -0.0975 0.0811
v  -0.1032 -0.0975 0.1032
v  -0.0811 -0.0975 0.1213
v  -0.0558 -0.0975 0.1348
v  -0.0285 -0.0975 0.1431
v  0.0000 -0.0975 0.1459
v  0.0285 -0.0975 0.1431
v  0.0558 -0.0975 0.1348
v  0.0811 -0.0975 0.1213
v  0.1032 -0.0975 0.1032
v  0.1213 -0.0975 0.0811
v  0.1348 -0.0975 0.0558
v  0.1431 -0.0975 0.0285
v  0.1459 -0.0975 -0.0000
v  0.1431 -0.0975 -0.0285
v  0.1348 -0.0975 -0.0558
v  0.1213 -0.0975 -0.0811
v  0.1032 -0.0975 -0.1032
v  0.0811 -0.0975 -0.1213
v  0.0558 -0.0975 -0.1348
v  0.0285 -0.0975 -0.1431
v  -0.0000 -0.1241 -0.1241
v  -0.0242 -0.1241 -0.1217
v  -0.0475 -0.1241 -0.1147
v  -0.0690 -0.1241 -0.1032
v  -0.0878 -0.1241 -0.0878
v  -0.1032 -0.1241 -0.0690
v  -0.1147 -0.1241 -0.0475
v  -0.1217 -0.1241 -0.0242
v  -0.1241 -0.1241 0.0000
v  -0.1217 -0.1241 0.0242
v  -0.1147 -0.1241 0.0475
v  -0.1032 -0.1241 0.0690
v  -0.0878 -0.1241 0.0878
v  -0.0690 -0.1241 0.1032
v  -0.0475 -0.1241 0.1147
v  -0.0242 -0.1241 0.1217
v  0.0000 -0.1241 0.1241
v  0.0242 -0.1241 0.1217
v  0.0475 -0.1241 0.1147
v  0.0690 -0.1241 0.1032
v  0.0878 -0.1241 0.0878
v  0.1032 -0.1241 0.0690
v  0.1147 -0.1241 0.0475
v  0.1217 -0.1241 0.0242
v  0.1241 -0.1241 -0.0000
v  0.1217 -0.1241 -0.0242
v  0.1147 -0.1241 -0.0475
v  0.1032 -0.1241 -0.0690
v  0.0878 -0.1241 -0.0878
v  0.0690 -0.1241 -0.1032
v  0.0475 -0.1241 -0.1147
v  0.0242 -0.1241 -0.1217
v  -0.0000 -0.1459 -0.0975
v  -0.0190 -0.1459 -0.0956
v  -0.0373 -0.1459 -0.0901
v  -0.0542 -0.1459 -0.0811
v  -0.0690 -0.1459 -0.0690
v  -0.0811 -0.1459 -0.0542
v  -0.0901 -0.1459 -0.0373
v  -0.0956 -0.1459 -0.0190
v  -0.0975 -0.1459 0.0000
v  -0.0956 -0.1459 0.0190
v  -0.0901 -0.1459 0.0373
v  -0.0811 -0.1459 0.0542
v  -0.0690 -0.1459 0.0690
v  -0.0542 -0.1459 0.0811
v  -0.0373 -0.1459 0.0901
v  -0.0190 -0.1459 0.0956
v  0.0000 -0.1459 0.0975
v  0.0190 -0.1459 0.0956
v  0.0373 -0.1459 0.0901
v  0.0542 -0.1459 0.0811
v  0.0690 -0.1459 0.0690
v  0.0811 -0.1459 0.0542
v  0.0901 -0.1459 0.0373
v  0.0956 -0.1459 0.0190
v  0.0975 -0.1459 -0.0000
v  0.0956 -0.1459 -0.0190
v  0.0901 -0.1459 -0.0373
v  0.0811 -0.1459 -0.0542
v  0.0690 -0.1459 -0.0690
v  0.0542 -0.1459 -0.0811
v  0.0373 -0.1459 -0.0901
v  0.0190 -0.1459 -0.0956
v  -0.0000 -0.1622 -0.0672
v  -0.0131 -0.1622 -0.0659
v  -0.0257 -0.1622 -0.0621
v  -0.0373 -0.1622 -0.0558
v  -0.0475 -0.1622 -0.0475
v  -0.0558 -0.1622 -0.0373
v  -0.0621 -0.1622 -0.0257
v  -0.0659 -0.1622 -0.0131
v  -0.0672 -0.1622 0.0000
v  -0.0659 -0.1622 0.0131
v  -0.0621 -0.1622 0.0257
v  -0.0558 -0.1622 0.0373
v  -0.0475 -0.1622 0.0475
v  -0.0373 -0.1622 0.0558
v  -0.0257 -0.1622 0.0621
v  -0.0131 -0.1622 0.0659
v  0.0000 -0.1622 0.0672
v  0.0131 -0.1622 0.0659
v  0.0257 -0.1622 0.0621
v  0.0373 -0.1622 0.0558
v  0.0475 -0.1622 0.0475
v  0.0558 -0.1622 0.0373
v  0.0621 -0.1622 0.0257
v  0.0659 -0.1622 0.0131
v  0.0672 -0.1622 -0.0000
v  0.0659 -0.1622 -0.0131
v  0.0621 -0.1622 -0.0257
v  0.0558 -0.1622 -0.0373
v  0.0475 -0.1622 -0.0475
v  0.0373 -0.1622 -0.0558
v  0.0257 -0.1622 -0.0621
v  0.0131 -0.1622 -0.0659
v  -0.0000 -0.1721 -0.0342
v  -0.0067 -0.1721 -0.0336
v  -0.0131 -0.1721 -0.0316
v  -0.0190 -0.1721 -0.0285
v  -0.0242 -0.1721 -0.0242
v  -0.0285 -0.1721 -0.0190
v  -0.0316 -0.1721 -0.0131
v  -0.0336 -0.1721 -0.0067
v  -0.0342 -0.1721 0.0000
v  -0.0336 -0.1721 0.0067
v  -0.0316 -0.1721 0.0131
v  -0.0285 -0.1721 0.0190
v  -0.0242 -0.1721 0.0242
v  -0.0190 -0.1721 0.0285
v  -0.0131 -0.1721 0.0316
v  -0.0067 -0.1721 0.0336
v  0.0000 -0.1721 0.0342
v  0.0067 -0.1721 0.0336
v  0.0131 -0.1721 0.0316
v  0.0190 -0.1721 0.0285
v  0.0242 -0.1721 0.0242
v  0.0285 -0.1721 0.0190
v  0.0316 -0.1721 0.0131
v  0.0336 -0.1721 0.0067
v  0.0342 -0.1721 -0.0000
v  0.0336 -0.1721 -0.0067
v  0.0316 -0.1721 -0.0131
v  0.0285 -0.1721 -0.0190
v  0.0242 -0.1721 -0.0242
v  0.0190 -0.1721 -0.0285
v  0.0131 -0.1721 -0.0316
v  0.0067 -0.1721 -0.0336
v  0.0000 -0.1755 -0.0000
# 482 vertices

vn -0.0000 1.0000 0.0000
vn -0.0000 0.9796 -0.2010
vn -0.0392 0.9796 -0.1971
vn -0.0769 0.9796 -0.1857
vn -0.1117 0.9796 -0.1671
vn -0.1421 0.9796 -0.1421
vn -0.1671 0.9796 -0.1117
vn -0.1857 0.9796 -0.0769
vn -0.1971 0.9796 -0.0392
vn -0.2010 0.9796 0.0000
vn -0.1971 0.9796 0.0392
vn -0.1857 0.9796 0.0769
vn -0.1671 0.9796 0.1117
vn -0.1421 0.9796 0.1421
vn -0.1117 0.9796 0.1671
vn -0.0769 0.9796 0.1857
vn -0.0392 0.9796 0.1971
vn 0.0000 0.9796 0.2010
vn 0.0392 0.9796 0.1971
vn 0.0769 0.9796 0.1857
vn 0.1117 0.9796 0.1671
vn 0.1421 0.9796 0.1421
vn 0.1671 0.9796 0.1117
vn 0.1857 0.9796 0.0769
vn 0.1971 0.9796 0.0392
vn 0.2010 0.9796 -0.0000
vn 0.1971 0.9796 -0.0392
vn 0.1857 0.9796 -0.0769
vn 0.1671 0.9796 -0.1117
vn 0.1421 0.9796 -0.1421
vn 0.1117 0.9796 -0.1671
vn 0.0769 0.9796 -0.1857
vn 0.0392 0.9796 -0.1971
vn -0.0000 0.9217 -0.3879
vn -0.0757 0.9217 -0.3804
vn -0.1484 0.9217 -0.3584
vn -0.2155 0.9217 -0.3225
vn -0.2743 0.9217 -0.2743
vn -0.3225 0.9217 -0.2155
vn -0.3584 0.9217 -0.1484
vn -0.3804 0.9217 -0.0757
vn -0.3879 0.9217 0.0000
vn -0.3804 0.9217 0.0757
vn -0.3584 0.9217 0.1484
vn -0.3225 0.9217 0.2155
vn -0.2743 0.9217 0.2743
vn -0.2155 0.9217 0.3225
vn -0.1484 0.9217 0.3584
vn -0.0757 0.9217 0.3804
vn 0.0000 0.9217 0.3879
vn 0.0757 0.9217 0.3804
vn 0.1484 0.9217 0.3584
vn 0.2155 0.9217 0.3225
vn 0.2743 0.9217 0.2743
vn 0.3225 0.9217 0.2155
vn 0.3584 0.9217 0.1484
vn 0.3804 0.9217 0.0757
vn 0.3879 0.9217 -0.0000
vn 0.3804 0.9217 -0.0757
vn 0.3584 0.9217 -0.1484
vn 0.3225 0.9217 -0.2155
vn 0.2743 0.9217 -0.2743
vn 0.2155 0.9217 -0.3225
vn 0.1484 0.9217 -0.3584
vn 0.0757 0.9217 -0.3804
vn -0.0000 0.8286 -0.5598
vn -0.1092 0.8286 -0.5490
vn -0.2142 0.8286 -0.5172
vn -0.3110 0.8286 -0.4654
vn -0.3958 0.8286 -0.3958
vn -0.4654 0.8286 -0.3110
vn -0.5172 0.8286 -0.2142
vn -0.5490 0.8286 -0.1092
vn -0.5598 0.8286 0.0000
vn -0.5490 0.8286 0.1092
vn -0.5172 0.8286 0.2142
vn -0.4654 0.8286 0.3110
vn -0.3958 0.8286 0.3958
vn -0.3110 0.8286 0.4654
vn -0.2142 0.8286 0.5172
vn -0.1092 0.8286 0.5490
vn 0.0000 0.8286 0.5598
vn 0.1092 0.8286 0.5490
vn 0.2142 0.8286 0.5172
vn 0.3110 0.8286 0.4654
vn 0.3958 0.8286 0.3958
vn 0.4654 0.8286 0.3110
vn 0.5172 0.8286 0.2142
vn 0.5490 0.8286 0.1092
vn 0.5598 0.8286 -0.0000
vn 0.5490 0.8286 -0.1092
vn 0.5172 0.8286 -0.2142
vn 0.4654 0.8286 -0.3110
vn 0.3958 0.8286 -0.3958
vn 0.3110 0.8286 -0.4654
vn 0.2142 0.8286 -0.5172
vn 0.1092 0.8286 -0.5490
vn -0.0000 0.7041 -0.7101
vn -0.1385 0.7041 -0.6965
vn -0.2718 0.7041 -0.6561
vn -0.3945 0.7041 -0.5905
vn -0.5021 0.7041 -0.5021
vn -0.5905 0.7041 -0.3945
vn -0.6561 0.7041 -0.2718
vn -0.6965 0.7041 -0.1385
vn -0.7101 0.7041 0.0000
vn -0.6965 0.7041 0.1385
vn -0.6561 0.7041 0.2718
vn -0.5905 0.7041 0.3945
vn -0.5021 0.7041 0.5021
vn -0.3945 0.7041 0.5905
vn -0.2718 0.7041 0.6561
vn -0.1385 0.7041 0.6965
vn 0.0000 0.7041 0.7101
vn 0.1385 0.7041 0.6965
vn 0.2718 0.7041 0.6561
vn 0.3945 0.7041 0.5905
vn 0.5021 0.7041 0.5021
vn 0.5905 0.7041 0.3945
vn 0.6561 0.7041 0.2718
vn 0.6965 0.7041 0.1385
vn 0.7101 0.7041 -0.0000
vn 0.6965 0.7041 -0.1385
vn 0.6561 0.7041 -0.2718
vn 0.5905 0.7041 -0.3945
vn 0.5021 0.7041 -0.5021
vn 0.3945 0.7041 -0.5905
vn 0.2718 0.7041 -0.6561
vn 0.1385 0.7041 -0.6965
vn -0.0000 0.5528 -0.8333
vn -0.1626 0.5528 -0.8173
vn -0.3189 0.5528 -0.7699
vn -0.4630 0.5528 -0.6929
vn -0.5893 0.5528 -0.5893
vn -0.6929 0.5528 -0.4630
vn -0.7699 0.5528 -0.3189
vn -0.8173 0.5528 -0.1626
vn -0.8333 0.5528 0.0000
vn -0.8173 0.5528 0.1626
vn -0.7699 0.5528 0.3189
vn -0.6929 0.5528 0.4630
vn -0.5893 0.5528 0.5893
vn -0.4630 0.5528 0.6929
vn -0.3189 0.5528 0.7699
vn -0.1626 0.5528 0.8173
vn 0.0000 0.5528 0.8333
vn 0.1626 0.5528 0.8173
vn 0.3189 0.5528 0.7699
vn 0.4630 0.5528 0.6929
vn 0.5893 0.5528 0.5893
vn 0.6929 0.5528 0.4630
vn 0.7699 0.5528 0.3189
vn 0.8173 0.5528 0.1626
vn 0.8333 0.5528 -0.0000
vn 0.8173 0.5528 -0.1626
vn 0.7699 0.5528 -0.3189
vn 0.6929 0.5528 -0.4630
vn 0.5893 0.5528 -0.5893
vn 0.4630 0.5528 -0.6929
vn 0.3189 0.5528 -0.7699
vn 0.1626 0.5528 -0.8173
vn -0.0000 0.3805 -0.9248
vn -0.1804 0.3805 -0.9070
vn -0.3539 0.3805 -0.8544
vn -0.5138 0.3805 -0.7689
vn -0.6539 0.3805 -0.6539
vn -0.7689 0.3805 -0.5138
vn -0.8544 0.3805 -0.3539
vn -0.9070 0.3805 -0.1804
vn -0.9248 0.3805 0.0000
vn -0.9070 0.3805 0.1804
vn -0.8544 0.3805 0.3539
vn -0.7689 0.3805 0.5138
vn -0.6539 0.3805 0.6539
vn -0.5138 0.3805 0.7689
vn -0.3539 0.3805 0.8544
vn -0.1804 0.3805 0.9070
vn 0.0000 0.3805 0.9248
vn 0.1804 0.3805 0.9070
vn 0.3539 0.3805 0.8544
vn 0.5138 0.3805 0.7689
vn 0.6539 0.3805 0.6539
vn 0.7689 0.3805 0.5138
vn 0.8544 0.3805 0.3539
vn 0.9070 0.3805 0.1804
vn 0.9248 0.3805 -0.0000
vn 0.9070 0.3805 -0.1804
vn 0.8544 0.3805 -0.3539
vn 0.7689 0.3805 -0.5138
vn 0.6539 0.3805 -0.6539
vn 0.5138 0.3805 -0.7689
vn 0.3539 0.3805 -0.8544
vn 0.1804 0.3805 -0.9070
vn -0.0000 0.1939 -0.9810
vn -0.1914 0.1939 -0.9622
vn -0.3754 0.1939 -0.9063
vn -0.5450 0.1939 -0.8157
vn -0.6937 0.1939 -0.6937
vn -0.8157 0.1939 -0.5450
vn -0.9063 0.1939 -0.3754
vn -0.9622 0.1939 -0.1914
vn -0.9810 0.1939 0.0000
vn -0.9622 0.1939 0.1914
vn -0.9063 0.1939 0.3754
vn -0.8157 0.1939 0.5450
vn -0.6937 0.1939 0.6937
vn -0.5450 0.1939 0.8157
vn -0.3754 0.1939 0.9063
vn -0.1914 0.1939 0.9622
vn 0.0000 0.1939 0.9810
vn 0.1914 0.1939 0.9622
vn 0.3754 0.1939 0.9063
vn 0.5450 0.1939 0.8157
vn 0.6937 0.1939 0.6937
vn 0.8157 0.1939 0.5450
vn 0.9063 0.1939 0.3754
vn 0.9622 0.1939 0.1914
vn 0.9810 0.1939 -0.0000
vn 0.9622 0.1939 -0.1914
vn 0.9063 0.1939 -0.3754
vn 0.8157 0.1939 -0.5450
vn 0.6937 0.1939 -0.6937
vn 0.5450 0.1939 -0.8157
vn 0.3754 0.1939 -0.9063
vn 0.1914 0.1939 -0.9622
vn -0.0000 0.0000 -1.0000
vn -0.1951 -0.0000 -0.9808
vn -0.3827 0.0000 -0.9239
vn -0.5556 0.0000 -0.8315
vn -0.7071 0.0000 -0.7071
vn -0.8315 0.0000 -0.5556
vn -0.9239 0.0000 -0.3827
vn -0.9808 -0.0000 -0.1951
vn -1.0000 0.0000 0.0000
vn -0.9808 -0.0000 0.1951
vn -0.9239 0.0000 0.3827
vn -0.8315 0.0000 0.5556
vn -0.7071 -0.0000 0.7071
vn -0.5556 0.0000 0.8315
vn -0.3827 0.0000 0.9239
vn -0.1951 -0.0000 0.9808
vn 0.0000 -0.0000 1.0000
vn 0.1951 -0.0000 0.9808
vn 0.3827 0.0000 0.9239
vn 0.5556 0.0000 0.8315
vn 0.7071 0.0000 0.7071
vn 0.8315 0.0000 0.5556
vn 0.9239 0.0000 0.3827
vn 0.9808 -0.0000 0.1951
vn 1.0000 -0.0000 -0.0000
vn 0.9808 0.0000 -0.1951
vn 0.9239 0.0000 -0.3827
vn 0.8315 -0.0000 -0.5556
vn 0.7071 0.0000 -0.7071
vn 0.5556 -0.0000 -0.8315
vn 0.3827 -0.0000 -0.9239
vn 0.1951 0.0000 -0.9808
vn -0.0000 -0.1939 -0.9810
vn -0.1914 -0.1939 -0.9622
vn -0.3754 -0.1939 -0.9063
vn -0.5450 -0.1939 -0.8157
vn -0.6937 -0.1939 -0.6937
vn -0.8157 -0.1939 -0.5450
vn -0.9063 -0.1939 -0.3754
vn -0.9622 -0.1939 -0.1914
vn -0.9810 -0.1939 0.0000
vn -0.9622 -0.1939 0.1914
vn -0.9063 -0.1939 0.3754
vn -0.8157 -0.1939 0.5450
vn -0.6937 -0.1939 0.6937
vn -0.5450 -0.1939 0.8157
vn -0.3754 -0.1939 0.9063
vn -0.1914 -0.1939 0.9622
vn 0.0000 -0.1939 0.9810
vn 0.1914 -0.1939 0.9622
vn 0.3754 -0.1939 0.9063
vn 0.5450 -0.1939 0.8157
vn 0.6937 -0.1939 0.6937
vn 0.8157 -0.1939 0.5450
vn 0.9063 -0.1939 0.3754
vn 0.9622 -0.1939 0.1914
vn 0.9810 -0.1939 -0.0000
vn 0.9622 -0.1939 -0.1914
vn 0.9063 -0.1939 -0.3754
vn 0.8157 -0.1939 -0.5450
vn 0.6937 -0.1939 -0.6937
vn 0.5450 -0.1939 -0.8157
vn 0.3754 -0.1939 -0.9063
vn 0.1914 -0.1939 -0.9622
vn -0.0000 -0.3805 -0.9248
vn -0.1804 -0.3805 -0.9070
vn -0.3539 -0.3805 -0.8544
vn -0.5138 -0.3805 -0.7689
vn -0.6539 -0.3805 -0.6539
vn -0.7689 -0.3805 -0.5138
vn -0.8544 -0.3805 -0.3539
vn -0.9070 -0.3805 -0.1804
vn -0.9248 -0.3805 0.0000
vn -0.9070 -0.3805 0.1804
vn -0.8544 -0.3805 0.3539
vn -0.7689 -0.3805 0.5138
vn -0.6539 -0.3805 0.6539
vn -0.5138 -0.3805 0.7689
vn -0.3539 -0.3805 0.8544
vn -0.1804 -0.3805 0.9070
vn 0.0000 -0.3805 0.9248
vn 0.1804 -0.3805 0.9070
vn 0.3539 -0.3805 0.8544
vn 0.5138 -0.3805 0.7689
vn 0.6539 -0.3805 0.6539
vn 0.7689 -0.3805 0.5138
vn 0.8544 -0.3805 0.3539
vn 0.9070 -0.3805 0.1804
vn 0.9248 -0.3805 -0.0000
vn 0.9070 -0.3805 -0.1804
vn 0.8544 -0.3805 -0.3539
vn 0.7689 -0.3805 -0.5138
vn 0.6539 -0.3805 -0.6539
vn 0.5138 -0.3805 -0.7689
vn 0.3539 -0.3805 -0.8544
vn 0.1804 -0.3805 -0.9070
vn -0.0000 -0.5528 -0.8333
vn -0.1626 -0.5528 -0.8173
vn -0.3189 -0.5528 -0.7699
vn -0.4630 -0.5528 -0.6929
vn -0.5893 -0.5528 -0.5893
vn -0.6929 -0.5528 -0.4630
vn -0.7699 -0.5528 -0.3189
vn -0.8173 -0.5528 -0.1626
vn -0.8333 -0.5528 0.0000
vn -0.8173 -0.5528 0.1626
vn -0.7699 -0.5528 0.3189
vn -0.6929 -0.5528 0.4630
vn -0.5893 -0.5528 0.5893
vn -0.4630 -0.5528 0.6929
vn -0.3189 -0.5528 0.7699
vn -0.1626 -0.5528 0.8173
vn 0.0000 -0.5528 0.8333
vn 0.1626 -0.5528 0.8173
vn 0.3189 -0.5528 0.7699
vn 0.4630 -0.5528 0.6929
vn 0.5893 -0.5528 0.5893
vn 0.6929 -0.5528 0.4630
vn 0.7699 -0.5528 0.3189
vn 0.8173 -0.5528 0.1626
vn 0.8333 -0.5528 -0.0000
vn 0.8173 -0.5528 -0.1626
vn 0.7699 -0.5528 -0.3189
vn 0.6929 -0.5528 -0.4630
vn 0.5893 -0.5528 -0.5893
vn 0.4630 -0.5528 -0.6929
vn 0.3189 -0.5528 -0.7699
vn 0.1626 -0.5528 -0.8173
vn -0.0000 -0.7041 -0.7101
vn -0.1385 -0.7041 -0.6965
vn -0.2718 -0.7041 -0.6561
vn -0.3945 -0.7041 -0.5905
vn -0.5021 -0.7041 -0.5021
vn -0.5905 -0.7041 -0.3945
vn -0.6561 -0.7041 -0.2718
vn -0.6965 -0.7041 -0.1385
vn -0.7101 -0.7041 0.0000
vn -0.6965 -0.7041 0.1385
vn -0.6561 -0.7041 0.2718
vn -0.5905 -0.7041 0.3945
vn -0.5021 -0.7041 0.5021
vn -0.3945 -0.7041 0.5905
vn -0.2718 -0.7041 0.6561
vn -0.1385 -0.7041 0.6965
vn 0.0000 -0.7041 0.7101
vn 0.1385 -0.7041 0.6965
vn 0.2718 -0.7041 0.6561
vn 0.3945 -0.7041 0.5905
vn 0.5021 -0.7041 0.5021
vn 0.5905 -0.7041 0.3945
vn 0.6561 -0.7041 0.2718
vn 0.6965 -0.7041 0.1385
vn 0.7101 -0.7041 -0.0000
vn 0.6965 -0.7041 -0.1385
vn 0.6561 -0.7041 -0.2718
vn 0.5905 -0.7041 -0.3945
vn 0.5021 -0.7041 -0.5021
vn 0.3945 -0.7041 -0.5905
vn 0.2718 -0.7041 -0.6561
vn 0.1385 -0.7041 -0.6965
vn -0.0000 -0.8286 -0.5598
vn -0.1092 -0.8286 -0.5490
vn -0.2142 -0.8286 -0.5172
vn -0.3110 -0.8286 -0.4654
vn -0.3958 -0.8286 -0.3958
vn -0.4654 -0.8286 -0.3110
vn -0.5172 -0.8286 -0.2142
vn -0.5490 -0.8286 -0.1092
vn -0.5598 -0.8286 0.0000
vn -0.5490 -0.8286 0.1092
vn -0.5172 -0.8286 0.2142
vn -0.4654 -0.8286 0.3110
vn -0.3958 -0.8286 0.3958
vn -0.3110 -0.8286 0.4654
vn -0.2142 -0.8286 0.5172
vn -0.1092 -0.8286 0.5490
vn 0.0000 -0.8286 0.5598
vn 0.1092 -0.8286 0.5490
vn 0.2142 -0.8286 0.5172
vn 0.3110 -0.8286 0.4654
vn 0.3958 -0.8286 0.3958
vn 0.4654 -0.8286 0.3110
vn 0.5172 -0.8286 0.2142
vn 0.5490 -0.8286 0.1092
vn 0.5598 -0.8286 -0.0000
vn 0.5490 -0.8286 -0.1092
vn 0.5172 -0.8286 -0.2142
vn 0.4654 -0.8286 -0.3110
vn 0.3958 -0.8286 -0.3958
vn 0.3110 -0.8286 -0.4654
vn 0.2142 -0.8286 -0.5172
vn 0.1092 -0.8286 -0.5490
vn -0.0000 -0.9217 -0.3879
vn -0.0757 -0.9217 -0.3804
vn -0.1484 -0.9217 -0.3584
vn -0.2155 -0.9217 -0.3225
vn -0.2743 -0.9217 -0.2743
vn -0.3225 -0.9217 -0.2155
vn -0.3584 -0.9217 -0.1484
vn -0.3804 -0.9217 -0.0757
vn -0.3879 -0.9217 0.0000
vn -0.3804 -0.9217 0.0757
vn -0.3584 -0.9217 0.1484
vn -0.3225 -0.9217 0.2155
vn -0.2743 -0.9217 0.2743
vn -0.2155 -0.9217 0.3225
vn -0.1484 -0.9217 0.3584
vn -0.0757 -0.9217 0.3804
vn 0.0000 -0.9217 0.3879
vn 0.0757 -0.9217 0.3804
vn 0.1484 -0.9217 0.3584
vn 0.2155 -0.9217 0.3225
vn 0.2743 -0.9217 0.2743
vn 0.3225 -0.9217 0.2155
vn 0.3584 -0.9217 0.1484
vn 0.3804 -0.9217 0.0757
vn 0.3879 -0.9217 -0.0000
vn 0.3804 -0.9217 -0.0757
vn 0.3584 -0.9217 -0.1484
vn 0.3225 -0.9217 -0.2155
vn 0.2743 -0.9217 -0.2743
vn 0.2155 -0.9217 -0.3225
vn 0.1484 -0.9217 -0.3584
vn 0.0757 -0.9217 -0.3804
vn -0.0000 -0.9796 -0.2010
vn -0.0392 -0.9796 -0.1971
vn -0.0769 -0.9796 -0.1857
vn -0.1117 -0.9796 -0.1671
vn -0.1421 -0.9796 -0.1421
vn -0.1671 -0.9796 -0.1117
vn -0.1857 -0.9796 -0.0769
vn -0.1971 -0.9796 -0.0392
vn -0.2010 -0.9796 0.0000
vn -0.1971 -0.9796 0.0392
vn -0.1857 -0.9796 0.0769
vn -0.1671 -0.9796 0.1117
vn -0.1421 -0.9796 0.1421
vn -0.1117 -0.9796 0.1671
vn -0.0769 -0.9796 0.1857
vn -0.0392 -0.9796 0.1971
vn 0.0000 -0.9796 0.2010
vn 0.0392 -0.9796 0.1971
vn 0.0769 -0.9796 0.1857
vn 0.1117 -0.9796 0.1671
vn 0.1421 -0.9796 0.1421
vn 0.1671 -0.9796 0.1117
vn 0.1857 -0.9796 0.0769
vn 0.1971 -0.9796 0.0392
vn 0.2010 -0.9796 -0.0000
vn 0.1971 -0.9796 -0.0392
vn 0.1857 -0.9796 -0.0769
vn 0.1671 -0.9796 -0.1117
vn 0.1421 -0.9796 -0.1421
vn 0.1117 -0.9796 -0.1671
vn 0.0769 -0.9796 -0.1857
vn 0.0392 -0.9796 -0.1971
vn -0.0000 -1.0000 0.0000
# 482 vertex normals

vt 0.0000 1.0000 0.0000
vt 0.0000 0.9375 0.0000
vt 0.0313 0.9375 0.0000
vt 0.0313 1.0000 0.0000
vt 0.0625 0.9375 0.0000
vt 0.0625 1.0000 0.0000
vt 0.0938 0.9375 0.0000
vt 0.0938 1.0000 0.0000
vt 0.1250 0.9375 0.0000
vt 0.1250 1.0000 0.0000
vt 0.1563 0.9375 0.0000
vt 0.1563 1.0000 0.0000
vt 0.1875 0.9375 0.0000
vt 0.1875 1.0000 0.0000
vt 0.2187 0.9375 0.0000
vt 0.2187 1.0000 0.0000
vt 0.2500 0.9375 0.0000
vt 0.2500 1.0000 0.0000
vt 0.2812 0.9375 0.0000
vt 0.2812 1.0000 0.0000
vt 0.3125 0.9375 0.0000
vt 0.3125 1.0000 0.0000
vt 0.3437 0.9375 0.0000
vt 0.3437 1.0000 0.0000
vt 0.3750 0.9375 0.0000
vt 0.3750 1.0000 0.0000
vt 0.4063 0.9375 0.0000
vt 0.4063 1.0000 0.0000
vt 0.4375 0.9375 0.0000
vt 0.4375 1.0000 0.0000
vt 0.4688 0.9375 0.0000
vt 0.4688 1.0000 0.0000
vt 0.5000 0.9375 0.0000
vt 0.5000 1.0000 0.0000
vt 0.5313 0.9375 0.0000
vt 0.5313 1.0000 0.0000
vt 0.5625 0.9375 0.0000
vt 0.5625 1.0000 0.0000
vt 0.5938 0.9375 0.0000
vt 0.5938 1.0000 0.0000
vt 0.6250 0.9375 0.0000
vt 0.6250 1.0000 0.0000
vt 0.6563 0.9375 0.0000
vt 0.6563 1.0000 0.0000
vt 0.6875 0.9375 0.0000
vt 0.6875 1.0000 0.0000
vt 0.7188 0.9375 0.0000
vt 0.7188 1.0000 0.0000
vt 0.7500 0.9375 0.0000
vt 0.7500 1.0000 0.0000
vt 0.7813 0.9375 0.0000
vt 0.7813 1.0000 0.0000
vt 0.8125 0.9375 0.0000
vt 0.8125 1.0000 0.0000
vt 0.8438 0.9375 0.0000
vt 0.8438 1.0000 0.0000
vt 0.8750 0.9375 0.0000
vt 0.8750 1.0000 0.0000
vt 0.9063 0.9375 0.0000
vt 0.9063 1.0000 0.0000
vt 0.9375 0.9375 0.0000
vt 0.9375 1.0000 0.0000
vt 0.9688 0.9375 0.0000
vt 0.9688 1.0000 0.0000
vt 1.0000 0.9375 0.0000
vt 0.0000 0.8750 0.0000
vt 0.0313 0.8750 0.0000
vt 0.0625 0.8750 0.0000
vt 0.0938 0.8750 0.0000
vt 0.1250 0.8750 0.0000
vt 0.1563 0.8750 0.0000
vt 0.1875 0.8750 0.0000
vt 0.2187 0.8750 0.0000
vt 0.2500 0.8750 0.0000
vt 0.2812 0.8750 0.0000
vt 0.3125 0.8750 0.0000
vt 0.3437 0.8750 0.0000
vt 0.3750 0.8750 0.0000
vt 0.4063 0.8750 0.0000
vt 0.4375 0.8750 0.0000
vt 0.4688 0.8750 0.0000
vt 0.5000 0.8750 0.0000
vt 0.5313 0.8750 0.0000
vt 0.5625 0.8750 0.0000
vt 0.5938 0.8750 0.0000
vt 0.6250 0.8750 0.0000
vt 0.6563 0.8750 0.0000
vt 0.6875 0.8750 0.0000
vt 0.7188 0.8750 0.0000
vt 0.7500 0.8750 0.0000
vt 0.7813 0.8750 0.0000
vt 0.8125 0.8750 0.0000
vt 0.8438 0.8750 0.0000
vt 0.8750 0.8750 0.0000
vt 0.9063 0.8750 0.0000
vt 0.9375 0.8750 0.0000
vt 0.9688 0.8750 0.0000
vt 1.0000 0.8750 0.0000
vt 0.0000 0.8125 0.0000
vt 0.0313 0.8125 0.0000
vt 0.0625 0.8125 0.0000
vt 0.0938 0.8125 0.0000
vt 0.1250 0.8125 0.0000
vt 0.1563 0.8125 0.0000
vt 0.1875 0.8125 0.0000
vt 0.2187 0.8125 0.0000
vt 0.2500 0.8125 0.0000
vt 0.2812 0.8125 0.0000
vt 0.3125 0.8125 0.0000
vt 0.3437 0.8125 0.0000
vt 0.3750 0.8125 0.0000
vt 0.4063 0.8125 0.0000
vt 0.4375 0.8125 0.0000
vt 0.4688 0.8125 0.0000
vt 0.5000 0.8125 0.0000
vt 0.5313 0.8125 0.0000
vt 0.5625 0.8125 0.0000
vt 0.5938 0.8125 0.0000
vt 0.6250 0.8125 0.0000
vt 0.6563 0.8125 0.0000
vt 0.6875 0.8125 0.0000
vt 0.7188 0.8125 0.0000
vt 0.7500 0.8125 0.0000
vt 0.7813 0.8125 0.0000
vt 0.8125 0.8125 0.0000
vt 0.8438 0.8125 0.0000
vt 0.8750 0.8125 0.0000
vt 0.9063 0.8125 0.0000
vt 0.9375 0.8125 0.0000
vt 0.9688 0.8125 0.0000
vt 1.0000 0.8125 0.0000
vt 0.0000 0.7500 0.0000
vt 0.0313 0.7500 0.0000
vt 0.0625 0.7500 0.0000
vt 0.0938 0.7500 0.0000
vt 0.1250 0.7500 0.0000
vt 0.1563 0.7500 0.0000
vt 0.1875 0.7500 0.0000
vt 0.2187 0.7500 0.0000
vt 0.2500 0.7500 0.0000
vt 0.2812 0.7500 0.0000
vt 0.3125 0.7500 0.0000
vt 0.3437 0.7500 0.0000
vt 0.3750 0.7500 0.0000
vt 0.4063 0.7500 0.0000
vt 0.4375 0.7500 0.0000
vt 0.4688 0.7500 0.0000
vt 0.5000 0.7500 0.0000
vt 0.5313 0.7500 0.0000
vt 0.5625 0.7500 0.0000
vt 0.5938 0.7500 0.0000
vt 0.6250 0.7500 0.0000
vt 0.6563 0.7500 0.0000
vt 0.6875 0.7500 0.0000
vt 0.7188 0.7500 0.0000
vt 0.7500 0.7500 0.0000
vt 0.7813 0.7500 0.0000
vt 0.8125 0.7500 0.0000
vt 0.8438 0.7500 0.0000
vt 0.8750 0.7500 0.0000
vt 0.9063 0.7500 0.0000
vt 0.9375 0.7500 0.0000
vt 0.9688 0.7500 0.0000
vt 1.0000 0.7500 0.0000
vt 0.0000 0.6875 0.0000
vt 0.0313 0.6875 0.0000
vt 0.0625 0.6875 0.0000
vt 0.0938 0.6875 0.0000
vt 0.1250 0.6875 0.0000
vt 0.1563 0.6875 0.0000
vt 0.1875 0.6875 0.0000
vt 0.2187 0.6875 0.0000
vt 0.2500 0.6875 0.0000
vt 0.2812 0.6875 0.0000
vt 0.3125 0.6875 0.0000
vt 0.3437 0.6875 0.0000
vt 0.3750 0.6875 0.0000
vt 0.4063 0.6875 0.0000
vt 0.4375 0.6875 0.0000
vt 0.4688 0.6875 0.0000
vt 0.5000 0.6875 0.0000
vt 0.5313 0.6875 0.0000
vt 0.5625 0.6875 0.0000
vt 0.5938 0.6875 0.0000
vt 0.6250 0.6875 0.0000
vt 0.6563 0.6875 0.0000
vt 0.6875 0.6875 0.0000
vt 0.7188 0.6875 0.0000
vt 0.7500 0.6875 0.0000
vt 0.7813 0.6875 0.0000
vt 0.8125 0.6875 0.0000
vt 0.8438 0.6875 0.0000
vt 0.8750 0.6875 0.0000
vt 0.9063 0.6875 0.0000
vt 0.9375 0.6875 0.0000
vt 0.9688 0.6875 0.0000
vt 1.0000 0.6875 0.0000
vt 0.0000 0.6250 0.0000
vt 0.0313 0.6250 0.0000
vt 0.0625 0.6250 0.0000
vt 0.0938 0.6250 0.0000
vt 0.1250 0.6250 0.0000
vt 0.1563 0.6250 0.0000
vt 0.1875 0.6250 0.0000
vt 0.2187 0.6250 0.0000
vt 0.2500 0.6250 0.0000
vt 0.2812 0.6250 0.0000
vt 0.3125 0.6250 0.0000
vt 0.3437 0.6250 0.0000
vt 0.3750 0.6250 0.0000
vt 0.4063 0.6250 0.0000
vt 0.4375 0.6250 0.0000
vt 0.4688 0.6250 0.0000
vt 0.5000 0.6250 0.0000
vt 0.5313 0.6250 0.0000
vt 0.5625 0.6250 0.0000
vt 0.5938 0.6250 0.0000
vt 0.6250 0.6250 0.0000
vt 0.6563 0.6250 0.0000
vt 0.6875 0.6250 0.0000
vt 0.7188 0.6250 0.0000
vt 0.7500 0.6250 0.0000
vt 0.7813 0.6250 0.0000
vt 0.8125 0.6250 0.0000
vt 0.8438 0.6250 0.0000
vt 0.8750 0.6250 0.0000
vt 0.9063 0.6250 0.0000
vt 0.9375 0.6250 0.0000
vt 0.9688 0.6250 0.0000
vt 1.0000 0.6250 0.0000
vt 0.0000 0.5625 0.0000
vt 0.0313 0.5625 0.0000
vt 0.0625 0.5625 0.0000
vt 0.0938 0.5625 0.0000
vt 0.1250 0.5625 0.0000
vt 0.1563 0.5625 0.0000
vt 0.1875 0.5625 0.0000
vt 0.2187 0.5625 0.0000
vt 0.2500 0.5625 0.0000
vt 0.2812 0.5625 0.0000
vt 0.3125 0.5625 0.0000
vt 0.3437 0.5625 0.0000
vt 0.3750 0.5625 0.0000
vt 0.4063 0.5625 0.0000
vt 0.4375 0.5625 0.0000
vt 0.4688 0.5625 0.0000
vt 0.5000 0.5625 0.0000
vt 0.5313 0.5625 0.0000
vt 0.5625 0.5625 0.0000
vt 0.5938 0.5625 0.0000
vt 0.6250 0.5625 0.0000
vt 0.6563 0.5625 0.0000
vt 0.6875 0.5625 0.0000
vt 0.7188 0.5625 0.0000
vt 0.7500 0.5625 0.0000
vt 0.7813 0.5625 0.0000
vt 0.8125 0.5625 0.0000
vt 0.8438 0.5625 0.0000
vt 0.8750 0.5625 0.0000
vt 0.9063 0.5625 0.0000
vt 0.9375 0.5625 0.0000
vt 0.9688 0.5625 0.0000
vt 1.0000 0.5625 0.0000
vt 0.0000 0.5000 0.0000
vt 0.0313 0.5000 0.0000
vt 0.0625 0.5000 0.0000
vt 0.0938 0.5000 0.0000
vt 0.1250 0.5000 0.0000
vt 0.1563 0.5000 0.0000
vt 0.1875 0.5000 0.0000
vt 0.2187 0.5000 0.0000
vt 0.2500 0.5000 0.0000
vt 0.2812 0.5000 0.0000
vt 0.3125 0.5000 0.0000
vt 0.3437 0.5000 0.0000
vt 0.3750 0.5000 0.0000
vt 0.4063 0.5000 0.0000
vt 0.4375 0.5000 0.0000
vt 0.4688 0.5000 0.0000
vt 0.5000 0.5000 0.0000
vt 0.5313 0.5000 0.0000
vt 0.5625 0.5000 0.0000
vt 0.5938 0.5000 0.0000
vt 0.6250 0.5000 0.0000
vt 0.6563 0.5000 0.0000
vt 0.6875 0.5000 0.0000
vt 0.7188 0.5000 0.0000
vt 0.7500 0.5000 0.0000
vt 0.7813 0.5000 0.0000
vt 0.8125 0.5000 0.0000
vt 0.8438 0.5000 0.0000
vt 0.8750 0.5000 0.0000
vt 0.9063 0.5000 0.0000
vt 0.9375 0.5000 0.0000
vt 0.9688 0.5000 0.0000
vt 1.0000 0.5000 0.0000
vt 0.0000 0.4375 0.0000
vt 0.0313 0.4375 0.0000
vt 0.0625 0.4375 0.0000
vt 0.0938 0.4375 0.0000
vt 0.1250 0.4375 0.0000
vt 0.1563 0.4375 0.0000
vt 0.1875 0.4375 0.0000
vt 0.2187 0.4375 0.0000
vt 0.2500 0.4375 0.0000
vt 0.2812 0.4375 0.0000
vt 0.3125 0.4375 0.0000
vt 0.3437 0.4375 0.0000
vt 0.3750 0.4375 0.0000
vt 0.4063 0.4375 0.0000
vt 0.4375 0.4375 0.0000
vt 0.4688 0.4375 0.0000
vt 0.5000 0.4375 0.0000
vt 0.5313 0.4375 0.0000
vt 0.5625 0.4375 0.0000
vt 0.5938 0.4375 0.0000
vt 0.6250 0.4375 0.0000
vt 0.6563 0.4375 0.0000
vt 0.6875 0.4375 0.0000
vt 0.7188 0.4375 0.0000
vt 0.7500 0.4375 0.0000
vt 0.7813 0.4375 0.0000
vt 0.8125 0.4375 0.0000
vt 0.8438 0.4375 0.0000
vt 0.8750 0.4375 0.0000
vt 0.9063 0.4375 0.0000
vt 0.9375 0.4375 0.0000
vt 0.9688 0.4375 0.0000
vt 1.0000 0.4375 0.0000
vt 0.0000 0.3750 0.0000
vt 0.0313 0.3750 0.0000
vt 0.0625 0.3750 0.0000
vt 0.0938 0.3750 0.0000
vt 0.1250 0.3750 0.0000
vt 0.1563 0.3750 0.0000
vt 0.1875 0.3750 0.0000
vt 0.2187 0.3750 0.0000
vt 0.2500 0.3750 0.0000
vt 0.2812 0.3750 0.0000
vt 0.3125 0.3750 0.0000
vt 0.3437 0.3750 0.0000
vt 0.3750 0.3750 0.0000
vt 0.4063 0.3750 0.0000
vt 0.4375 0.3750 0.0000
vt 0.4688 0.3750 0.0000
vt 0.5000 0.3750 0.0000
vt 0.5313 0.3750 0.0000
vt 0.5625 0.3750 0.0000
vt 0.5938 0.3750 0.0000
vt 0.6250 0.3750 0.0000
vt 0.6563 0.3750 0.0000
vt 0.6875 0.3750 0.0000
vt 0.7188 0.3750 0.0000
vt 0.7500 0.3750 0.0000
vt 0.7813 0.3750 0.0000
vt 0.8125 0.3750 0.0000
vt 0.8438 0.3750 0.0000
vt 0.8750 0.3750 0.0000
vt 0.9063 0.3750 0.0000
vt 0.9375 0.3750 0.0000
vt 0.9688 0.3750 0.0000
vt 1.0000 0.3750 0.0000
vt 0.0000 0.3125 0.0000
vt 0.0313 0.3125 0.0000
vt 0.0625 0.3125 0.0000
vt 0.0938 0.3125 0.0000
vt 0.1250 0.3125 0.0000
vt 0.1563 0.3125 0.0000
vt 0.1875 0.3125 0.0000
vt 0.2187 0.3125 0.0000
vt 0.2500 0.3125 0.0000
vt 0.2812 0.3125 0.0000
vt 0.3125 0.3125 0.0000
vt 0.3437 0.3125 0.0000
vt 0.3750 0.3125 0.0000
vt 0.4063 0.3125 0.0000
vt 0.4375 0.3125 0.0000
vt 0.4688 0.3125 0.0000
vt 0.5000 0.3125 0.0000
vt 0.5313 0.3125 0.0000
vt 0.5625 0.3125 0.0000
vt 0.5938 0.3125 0.0000
vt 0.6250 0.3125 0.0000
vt 0.6563 0.3125 0.0000
vt 0.6875 0.3125 0.0000
vt 0.7188 0.3125 0.0000
vt 0.7500 0.3125 0.0000
vt 0.7813 0.3125 0.0000
vt 0.8125 0.3125 0.0000
vt 0.8438 0.3125 0.0000
vt 0.8750 0.3125 0.0000
vt 0.9063 0.3125 0.0000
vt 0.9375 0.3125 0.0000
vt 0.9688 0.3125 0.0000
vt 1.0000 0.3125 0.0000
vt 0.0000 0.2500 0.0000
vt 0.0313 0.2500 0.0000
vt 0.0625 0.2500 0.0000
vt 0.0938 0.2500 0.0000
vt 0.1250 0.2500 0.0000
vt 0.1563 0.2500 0.0000
vt 0.1875 0.2500 0.0000
vt 0.2187 0.2500 0.0000
vt 0.2500 0.2500 0.0000
vt 0.2812 0.2500 0.0000
vt 0.3125 0.2500 0.0000
vt 0.3437 0.2500 0.0000
vt 0.3750 0.2500 0.0000
vt 0.4063 0.2500 0.0000
vt 0.4375 0.2500 0.0000
vt 0.4688 0.2500 0.0000
vt 0.5000 0.2500 0.0000
vt 0.5313 0.2500 0.0000
vt 0.5625 0.2500 0.0000
vt 0.5938 0.2500 0.0000
vt 0.6250 0.2500 0.0000
vt 0.6563 0.2500 0.0000
vt 0.6875 0.2500 0.0000
vt 0.7188 0.2500 0.0000
vt 0.7500 0.2500 0.0000
vt 0.7813 0.2500 0.0000
vt 0.8125 0.2500 0.0000
vt 0.8438 0.2500 0.0000
vt 0.8750 0.2500 0.0000
vt 0.9063 0.2500 0.0000
vt 0.9375 0.2500 0.0000
vt 0.9688 0.2500 0.0000
vt 1.0000 0.2500 0.0000
vt 0.0000 0.1875 0.0000
vt 0.0313 0.1875 0.0000
vt 0.0625 0.1875 0.0000
vt 0.0938 0.1875 0.0000
vt 0.1250 0.1875 0.0000
vt 0.1563 0.1875 0.0000
vt 0.1875 0.1875 0.0000
vt 0.2187 0.1875 0.0000
vt 0.2500 0.1875 0.0000
vt 0.2812 0.1875 0.0000
vt 0.3125 0.1875 0.0000
vt 0.3437 0.1875 0.0000
vt 0.3750 0.1875 0.0000
vt 0.4063 0.1875 0.0000
vt 0.4375 0.1875 0.0000
vt 0.4688 0.1875 0.0000
vt 0.5000 0.1875 0.0000
vt 0.5313 0.1875 0.0000
vt 0.5625 0.1875 0.0000
vt 0.5938 0.1875 0.0000
vt 0.6250 0.1875 0.0000
vt 0.6563 0.1875 0.0000
vt 0.6875 0.1875 0.0000
vt 0.7188 0.1875 0.0000
vt 0.7500 0.1875 0.0000
vt 0.7813 0.1875 0.0000
vt 0.8125 0.1875 0.0000
vt 0.8438 0.1875 0.0000
vt 0.8750 0.1875 0.0000
vt 0.9063 0.1875 0.0000
vt 0.9375 0.1875 0.0000
vt 0.9688 0.1875 0.0000
vt 1.0000 0.1875 0.0000
vt 0.0000 0.1250 0.0000
vt 0.0313 0.1250 0.0000
vt 0.0625 0.1250 0.0000
vt 0.0938 0.1250 0.0000
vt 0.1250 0.1250 0.0000
vt 0.1563 0.1250 0.0000
vt 0.1875 0.1250 0.0000
vt 0.2187 0.1250 0.0000
vt 0.2500 0.1250 0.0000
vt 0.2812 0.1250 0.0000
vt 0.3125 0.1250 0.0000
vt 0.3437 0.1250 0.0000
vt 0.3750 0.1250 0.0000
vt 0.4063 0.1250 0.0000
vt 0.4375 0.1250 0.0000
vt 0.4688 0.1250 0.0000
vt 0.5000 0.1250 0.0000
vt 0.5313 0.1250 0.0000
vt 0.5625 0.1250 0.0000
vt 0.5938 0.1250 0.0000
vt 0.6250 0.1250 0.0000
vt 0.6563 0.1250 0.0000
vt 0.6875 0.1250 0.0000
vt 0.7188 0.1250 0.0000
vt 0.7500 0.1250 0.0000
vt 0.7813 0.1250 0.0000
vt 0.8125 0.1250 0.0000
vt 0.8438 0.1250 0.0000
vt 0.8750 0.1250 0.0000
vt 0.9063 0.1250 0.0000
vt 0.9375 0.1250 0.0000
vt 0.9688 0.1250 0.0000
vt 1.0000 0.1250 0.0000
vt 0.0000 0.0625 0.0000
vt 0.0313 0.0625 0.0000
vt 0.0625 0.0625 0.0000
vt 0.0938 0.0625 0.0000
vt 0.1250 0.0625 0.0000
vt 0.1563 0.0625 0.0000
vt 0.1875 0.0625 0.0000
vt 0.2187 0.0625 0.0000
vt 0.2500 0.0625 0.0000
vt 0.2812 0.0625 0.0000
vt 0.3125 0.0625 0.0000
vt 0.3437 0.0625 0.0000
vt 0.3750 0.0625 0.0000
vt 0.4063 0.0625 0.0000
vt 0.4375 0.0625 0.0000
vt 0.4688 0.0625 0.0000
vt 0.5000 0.0625 0.0000
vt 0.5313 0.0625 0.0000
vt 0.5625 0.0625 0.0000
vt 0.5938 0.0625 0.0000
vt 0.6250 0.0625 0.0000
vt 0.6563 0.0625 0.0000
vt 0.6875 0.0625 0.0000
vt 0.7188 0.0625 0.0000
vt 0.7500 0.0625 0.0000
vt 0.7813 0.0625 0.0000
vt 0.8125 0.0625 0.0000
vt 0.8438 0.0625 0.0000
vt 0.8750 0.0625 0.0000
vt 0.9063 0.0625 0.0000
vt 0.9375 0.0625 0.0000
vt 0.9688 0.0625 0.0000
vt 1.0000 0.0625 0.0000
vt 0.0000 -0.0000 0.0000
vt 0.0313 -0.0000 0.0000
vt 0.0625 -0.0000 0.0000
vt 0.0938 -0.0000 0.0000
vt 0.1250 -0.0000 0.0000
vt 0.1563 -0.0000 0.0000
vt 0.1875 -0.0000 0.0000
vt 0.2187 -0.0000 0.0000
vt 0.2500 -0.0000 0.0000
vt 0.2812 -0.0000 0.0000
vt 0.3125 -0.0000 0.0000
vt 0.3437 -0.0000 0.0000
vt 0.3750 -0.0000 0.0000
vt 0.4063 -0.0000 0.0000
vt 0.4375 -0.0000 0.0000
vt 0.4688 -0.0000 0.0000
vt 0.5000 -0.0000 0.0000
vt 0.5313 -0.0000 0.0000
vt 0.5625 -0.0000 0.0000
vt 0.5938 -0.0000 0.0000
vt 0.6250 -0.0000 0.0000
vt 0.6563 -0.0000 0.0000
vt 0.6875 -0.0000 0.0000
vt 0.7188 -0.0000 0.0000
vt 0.7500 -0.0000 0.0000
vt 0.7813 -0.0000 0.0000
vt 0.8125 -0.0000 0.0000
vt 0.8438 -0.0000 0.0000
vt 0.8750 -0.0000 0.0000
vt 0.9063 -0.0000 0.0000
vt 0.9375 -0.0000 0.0000
vt 0.9688 -0.0000 0.0000
# 559 texture coords

g Eye
s 1
f 1/1/1 2/2/2 3/3/3 
f 1/4/1 3/3/3 4/5/4 
f 1/6/1 4/5/4 5/7/5 
f 1/8/1 5/7/5 6/9/6 
f 1/10/1 6/9/6 7/11/7 
f 1/12/1 7/11/7 8/13/8 
f 1/14/1 8/13/8 9/15/9 
f 1/16/1 9/15/9 10/17/10 
f 1/18/1 10/17/10 11/19/11 
f 1/20/1 11/19/11 12/21/12 
f 1/22/1 12/21/12 13/23/13 
f 1/24/1 13/23/13 14/25/14 
f 1/26/1 14/25/14 15/27/15 
f 1/28/1 15/27/15 16/29/16 
f 1/30/1 16/29/16 17/31/17 
f 1/32/1 17/31/17 18/33/18 
f 1/34/1 18/33/18 19/35/19 
f 1/36/1 19/35/19 20/37/20 
f 1/38/1 20/37/20 21/39/21 
f 1/40/1 21/39/21 22/41/22 
f 1/42/1 22/41/22 23/43/23 
f 1/44/1 23/43/23 24/45/24 
f 1/46/1 24/45/24 25/47/25 
f 1/48/1 25/47/25 26/49/26 
f 1/50/1 26/49/26 27/51/27 
f 1/52/1 27/51/27 28/53/28 
f 1/54/1 28/53/28 29/55/29 
f 1/56/1 29/55/29 30/57/30 
f 1/58/1 30/57/30 31/59/31 
f 1/60/1 31/59/31 32/61/32 
f 1/62/1 32/61/32 33/63/33 
f 1/64/1 33/63/33 2/65/2 
f 2/2/2 34/66/34 35/67/35 3/3/3 
f 3/3/3 35/67/35 36/68/36 4/5/4 
f 4/5/4 36/68/36 37/69/37 5/7/5 
f 5/7/5 37/69/37 38/70/38 6/9/6 
f 6/9/6 38/70/38 39/71/39 7/11/7 
f 7/11/7 39/71/39 40/72/40 8/13/8 
f 8/13/8 40/72/40 41/73/41 9/15/9 
f 9/15/9 41/73/41 42/74/42 10/17/10 
f 10/17/10 42/74/42 43/75/43 11/19/11 
f 11/19/11 43/75/43 44/76/44 12/21/12 
f 12/21/12 44/76/44 45/77/45 13/23/13 
f 13/23/13 45/77/45 46/78/46 14/25/14 
f 14/25/14 46/78/46 47/79/47 15/27/15 
f 15/27/15 47/79/47 48/80/48 16/29/16 
f 16/29/16 48/80/48 49/81/49 17/31/17 
f 17/31/17 49/81/49 50/82/50 18/33/18 
f 18/33/18 50/82/50 51/83/51 19/35/19 
f 19/35/19 51/83/51 52/84/52 20/37/20 
f 20/37/20 52/84/52 53/85/53 21/39/21 
f 21/39/21 53/85/53 54/86/54 22/41/22 
f 22/41/22 54/86/54 55/87/55 23/43/23 
f 23/43/23 55/87/55 56/88/56 24/45/24 
f 24/45/24 56/88/56 57/89/57 25/47/25 
f 25/47/25 57/89/57 58/90/58 26/49/26 
f 26/49/26 58/90/58 59/91/59 27/51/27 
f 27/51/27 59/91/59 60/92/60 28/53/28 
f 28/53/28 60/92/60 61/93/61 29/55/29 
f 29/55/29 61/93/61 62/94/62 30/57/30 
f 30/57/30 62/94/62 63/95/63 31/59/31 
f 31/59/31 63/95/63 64/96/64 32/61/32 
f 32/61/32 64/96/64 65/97/65 33/63/33 
f 33/63/33 65/97/65 34/98/34 2/65/2 
f 34/66/34 66/99/66 67/100/67 35/67/35 
f 35/67/35 67/100/67 68/101/68 36/68/36 
f 36/68/36 68/101/68 69/102/69 37/69/37 
f 37/69/37 69/102/69 70/103/70 38/70/38 
f 38/70/38 70/103/70 71/104/71 39/71/39 
f 39/71/39 71/104/71 72/105/72 40/72/40 
f 40/72/40 72/105/72 73/106/73 41/73/41 
f 41/73/41 73/106/73 74/107/74 42/74/42 
f 42/74/42 74/107/74 75/108/75 43/75/43 
f 43/75/43 75/108/75 76/109/76 44/76/44 
f 44/76/44 76/109/76 77/110/77 45/77/45 
f 45/77/45 77/110/77 78/111/78 46/78/46 
f 46/78/46 78/111/78 79/112/79 47/79/47 
f 47/79/47 79/112/79 80/113/80 48/80/48 
f 48/80/48 80/113/80 81/114/81 49/81/49 
f 49/81/49 81/114/81 82/115/82 50/82/50 
f 50/82/50 82/115/82 83/116/83 51/83/51 
f 51/83/51 83/116/83 84/117/84 52/84/52 
f 52/84/52 84/117/84 85/118/85 53/85/53 
f 53/85/53 85/118/85 86/119/86 54/86/54 
f 54/86/54 86/119/86 87/120/87 55/87/55 
f 55/87/55 87/120/87 88/121/88 56/88/56 
f 56/88/56 88/121/88 89/122/89 57/89/57 
f 57/89/57 89/122/89 90/123/90 58/90/58 
f 58/90/58 90/123/90 91/124/91 59/91/59 
f 59/91/59 91/124/91 92/125/92 60/92/60 
f 60/92/60 92/125/92 93/126/93 61/93/61 
f 61/93/61 93/126/93 94/127/94 62/94/62 
f 62/94/62 94/127/94 95/128/95 63/95/63 
f 63/95/63 95/128/95 96/129/96 64/96/64 
f 64/96/64 96/129/96 97/130/97 65/97/65 
f 65/97/65 97/130/97 66/131/66 34/98/34 
f 66/99/66 98/132/98 99/133/99 67/100/67 
f 67/100/67 99/133/99 100/134/100 68/101/68 
f 68/101/68 100/134/100 101/135/101 69/102/69 
f 69/102/69 101/135/101 102/136/102 70/103/70 
f 70/103/70 102/136/102 103/137/103 71/104/71 
f 71/104/71 103/137/103 104/138/104 72/105/72 
f 72/105/72 104/138/104 105/139/105 73/106/73 
f 73/106/73 105/139/105 106/140/106 74/107/74 
f 74/107/74 106/140/106 107/141/107 75/108/75 
f 75/108/75 107/141/107 108/142/108 76/109/76 
f 76/109/76 108/142/108 109/143/109 77/110/77 
f 77/110/77 109/143/109 110/144/110 78/111/78 
f 78/111/78 110/144/110 111/145/111 79/112/79 
f 79/112/79 111/145/111 112/146/112 80/113/80 
f 80/113/80 112/146/112 113/147/113 81/114/81 
f 81/114/81 113/147/113 114/148/114 82/115/82 
f 82/115/82 114/148/114 115/149/115 83/116/83 
f 83/116/83 115/149/115 116/150/116 84/117/84 
f 84/117/84 116/150/116 117/151/117 85/118/85 
f 85/118/85 117/151/117 118/152/118 86/119/86 
f 86/119/86 118/152/118 119/153/119 87/120/87 
f 87/120/87 119/153/119 120/154/120 88/121/88 
f 88/121/88 120/154/120 121/155/121 89/122/89 
f 89/122/89 121/155/121 122/156/122 90/123/90 
f 90/123/90 122/156/122 123/157/123 91/124/91 
f 91/124/91 123/157/123 124/158/124 92/125/92 
f 92/125/92 124/158/124 125/159/125 93/126/93 
f 93/126/93 125/159/125 126/160/126 94/127/94 
f 94/127/94 126/160/126 127/161/127 95/128/95 
f 95/128/95 127/161/127 128/162/128 96/129/96 
f 96/129/96 128/162/128 129/163/129 97/130/97 
f 97/130/97 129/163/129 98/164/98 66/131/66 
f 98/132/98 130/165/130 131/166/131 99/133/99 
f 99/133/99 131/166/131 132/167/132 100/134/100 
f 100/134/100 132/167/132 133/168/133 101/135/101 
f 101/135/101 133/168/133 134/169/134 102/136/102 
f 102/136/102 134/169/134 135/170/135 103/137/103 
f 103/137/103 135/170/135 136/171/136 104/138/104 
f 104/138/104 136/171/136 137/172/137 105/139/105 
f 105/139/105 137/172/137 138/173/138 106/140/106 
f 106/140/106 138/173/138 139/174/139 107/141/107 
f 107/141/107 139/174/139 140/175/140 108/142/108 
f 108/142/108 140/175/140 141/176/141 109/143/109 
f 109/143/109 141/176/141 142/177/142 110/144/110 
f 110/144/110 142/177/142 143/178/143 111/145/111 
f 111/145/111 143/178/143 144/179/144 112/146/112 
f 112/146/112 144/179/144 145/180/145 113/147/113 
f 113/147/113 145/180/145 146/181/146 114/148/114 
f 114/148/114 146/181/146 147/182/147 115/149/115 
f 115/149/115 147/182/147 148/183/148 116/150/116 
f 116/150/116 148/183/148 149/184/149 117/151/117 
f 117/151/117 149/184/149 150/185/150 118/152/118 
f 118/152/118 150/185/150 151/186/151 119/153/119 
f 119/153/119 151/186/151 152/187/152 120/154/120 
f 120/154/120 152/187/152 153/188/153 121/155/121 
f 121/155/121 153/188/153 154/189/154 122/156/122 
f 122/156/122 154/189/154 155/190/155 123/157/123 
f 123/157/123 155/190/155 156/191/156 124/158/124 
f 124/158/124 156/191/156 157/192/157 125/159/125 
f 125/159/125 157/192/157 158/193/158 126/160/126 
f 126/160/126 158/193/158 159/194/159 127/161/127 
f 127/161/127 159/194/159 160/195/160 128/162/128 
f 128/162/128 160/195/160 161/196/161 129/163/129 
f 129/163/129 161/196/161 130/197/130 98/164/98 
f 130/165/130 162/198/162 163/199/163 131/166/131 
f 131/166/131 163/199/163 164/200/164 132/167/132 
f 132/167/132 164/200/164 165/201/165 133/168/133 
f 133/168/133 165/201/165 166/202/166 134/169/134 
f 134/169/134 166/202/166 167/203/167 135/170/135 
f 135/170/135 167/203/167 168/204/168 136/171/136 
f 136/171/136 168/204/168 169/205/169 137/172/137 
f 137/172/137 169/205/169 170/206/170 138/173/138 
f 138/173/138 170/206/170 171/207/171 139/174/139 
f 139/174/139 171/207/171 172/208/172 140/175/140 
f 140/175/140 172/208/172 173/209/173 141/176/141 
f 141/176/141 173/209/173 174/210/174 142/177/142 
f 142/177/142 174/210/174 175/211/175 143/178/143 
f 143/178/143 175/211/175 176/212/176 144/179/144 
f 144/179/144 176/212/176 177/213/177 145/180/145 
f 145/180/145 177/213/177 178/214/178 146/181/146 
f 146/181/146 178/214/178 179/215/179 147/182/147 
f 147/182/147 179/215/179 180/216/180 148/183/148 
f 148/183/148 180/216/180 181/217/181 149/184/149 
f 149/184/149 181/217/181 182/218/182 150/185/150 
f 150/185/150 182/218/182 183/219/183 151/186/151 
f 151/186/151 183/219/183 184/220/184 152/187/152 
f 152/187/152 184/220/184 185/221/185 153/188/153 
f 153/188/153 185/221/185 186/222/186 154/189/154 
f 154/189/154 186/222/186 187/223/187 155/190/155 
f 155/190/155 187/223/187 188/224/188 156/191/156 
f 156/191/156 188/224/188 189/225/189 157/192/157 
f 157/192/157 189/225/189 190/226/190 158/193/158 
f 158/193/158 190/226/190 191/227/191 159/194/159 
f 159/194/159 191/227/191 192/228/192 160/195/160 
f 160/195/160 192/228/192 193/229/193 161/196/161 
f 161/196/161 193/229/193 162/230/162 130/197/130 
f 162/198/162 194/231/194 195/232/195 163/199/163 
f 163/199/163 195/232/195 196/233/196 164/200/164 
f 164/200/164 196/233/196 197/234/197 165/201/165 
f 165/201/165 197/234/197 198/235/198 166/202/166 
f 166/202/166 198/235/198 199/236/199 167/203/167 
f 167/203/167 199/236/199 200/237/200 168/204/168 
f 168/204/168 200/237/200 201/238/201 169/205/169 
f 169/205/169 201/238/201 202/239/202 170/206/170 
f 170/206/170 202/239/202 203/240/203 171/207/171 
f 171/207/171 203/240/203 204/241/204 172/208/172 
f 172/208/172 204/241/204 205/242/205 173/209/173 
f 173/209/173 205/242/205 206/243/206 174/210/174 
f 174/210/174 206/243/206 207/244/207 175/211/175 
f 175/211/175 207/244/207 208/245/208 176/212/176 
f 176/212/176 208/245/208 209/246/209 177/213/177 
f 177/213/177 209/246/209 210/247/210 178/214/178 
f 178/214/178 210/247/210 211/248/211 179/215/179 
f 179/215/179 211/248/211 212/249/212 180/216/180 
f 180/216/180 212/249/212 213/250/213 181/217/181 
f 181/217/181 213/250/213 214/251/214 182/218/182 
f 182/218/182 214/251/214 215/252/215 183/219/183 
f 183/219/183 215/252/215 216/253/216 184/220/184 
f 184/220/184 216/253/216 217/254/217 185/221/185 
f 185/221/185 217/254/217 218/255/218 186/222/186 
f 186/222/186 218/255/218 219/256/219 187/223/187 
f 187/223/187 219/256/219 220/257/220 188/224/188 
f 188/224/188 220/257/220 221/258/221 189/225/189 
f 189/225/189 221/258/221 222/259/222 190/226/190 
f 190/226/190 222/259/222 223/260/223 191/227/191 
f 191/227/191 223/260/223 224/261/224 192/228/192 
f 192/228/192 224/261/224 225/262/225 193/229/193 
f 193/229/193 225/262/225 194/263/194 162/230/162 
f 194/231/194 226/264/226 227/265/227 195/232/195 
f 195/232/195 227/265/227 228/266/228 196/233/196 
f 196/233/196 228/266/228 229/267/229 197/234/197 
f 197/234/197 229/267/229 230/268/230 198/235/198 
f 198/235/198 230/268/230 231/269/231 199/236/199 
f 199/236/199 231/269/231 232/270/232 200/237/200 
f 200/237/200 232/270/232 233/271/233 201/238/201 
f 201/238/201 233/271/233 234/272/234 202/239/202 
f 202/239/202 234/272/234 235/273/235 203/240/203 
f 203/240/203 235/273/235 236/274/236 204/241/204 
f 204/241/204 236/274/236 237/275/237 205/242/205 
f 205/242/205 237/275/237 238/276/238 206/243/206 
f 206/243/206 238/276/238 239/277/239 207/244/207 
f 207/244/207 239/277/239 240/278/240 208/245/208 
f 208/245/208 240/278/240 241/279/241 209/246/209 
f 209/246/209 241/279/241 242/280/242 210/247/210 
f 210/247/210 242/280/242 243/281/243 211/248/211 
f 211/248/211 243/281/243 244/282/244 212/249/212 
f 212/249/212 244/282/244 245/283/245 213/250/213 
f 213/250/213 245/283/245 246/284/246 214/251/214 
f 214/251/214 246/284/246 247/285/247 215/252/215 
f 215/252/215 247/285/247 248/286/248 216/253/216 
f 216/253/216 248/286/248 249/287/249 217/254/217 
f 217/254/217 249/287/249 250/288/250 218/255/218 
f 218/255/218 250/288/250 251/289/251 219/256/219 
f 219/256/219 251/289/251 252/290/252 220/257/220 
f 220/257/220 252/290/252 253/291/253 221/258/221 
f 221/258/221 253/291/253 254/292/254 222/259/222 
f 222/259/222 254/292/254 255/293/255 223/260/223 
f 223/260/223 255/293/255 256/294/256 224/261/224 
f 224/261/224 256/294/256 257/295/257 225/262/225 
f 225/262/225 257/295/257 226/296/226 194/263/194 
f 226/264/226 258/297/258 259/298/259 227/265/227 
f 227/265/227 259/298/259 260/299/260 228/266/228 
f 228/266/228 260/299/260 261/300/261 229/267/229 
f 229/267/229 261/300/261 262/301/262 230/268/230 
f 230/268/230 262/301/262 263/302/263 231/269/231 
f 231/269/231 263/302/263 264/303/264 232/270/232 
f 232/270/232 264/303/264 265/304/265 233/271/233 
f 233/271/233 265/304/265 266/305/266 234/272/234 
f 234/272/234 266/305/266 267/306/267 235/273/235 
f 235/273/235 267/306/267 268/307/268 236/274/236 
f 236/274/236 268/307/268 269/308/269 237/275/237 
f 237/275/237 269/308/269 270/309/270 238/276/238 
f 238/276/238 270/309/270 271/310/271 239/277/239 
f 239/277/239 271/310/271 272/311/272 240/278/240 
f 240/278/240 272/311/272 273/312/273 241/279/241 
f 241/279/241 273/312/273 274/313/274 242/280/242 
f 242/280/242 274/313/274 275/314/275 243/281/243 
f 243/281/243 275/314/275 276/315/276 244/282/244 
f 244/282/244 276/315/276 277/316/277 245/283/245 
f 245/283/245 277/316/277 278/317/278 246/284/246 
f 246/284/246 278/317/278 279/318/279 247/285/247 
f 247/285/247 279/318/279 280/319/280 248/286/248 
f 248/286/248 280/319/280 281/320/281 249/287/249 
f 249/287/249 281/320/281 282/321/282 250/288/250 
f 250/288/250 282/321/282 283/322/283 251/289/251 
f 251/289/251 283/322/283 284/323/284 252/290/252 
f 252/290/252 284/323/284 285/324/285 253/291/253 
f 253/291/253 285/324/285 286/325/286 254/292/254 
f 254/292/254 286/325/286 287/326/287 255/293/255 
f 255/293/255 287/326/287 288/327/288 256/294/256 
f 256/294/256 288/327/288 289/328/289 257/295/257 
f 257/295/257 289/328/289 258/329/258 226/296/226 
f 258/297/258 290/330/290 291/331/291 259/298/259 
f 259/298/259 291/331/291 292/332/292 260/299/260 
f 260/299/260 292/332/292 293/333/293 261/300/261 
f 261/300/261 293/333/293 294/334/294 262/301/262 
f 262/301/262 294/334/294 295/335/295 263/302/263 
f 263/302/263 295/335/295 296/336/296 264/303/264 
f 264/303/264 296/336/296 297/337/297 265/304/265 
f 265/304/265 297/337/297 298/338/298 266/305/266 
f 266/305/266 298/338/298 299/339/299 267/306/267 
f 267/306/267 299/339/299 300/340/300 268/307/268 
f 268/307/268 300/340/300 301/341/301 269/308/269 
f 269/308/269 301/341/301 302/342/302 270/309/270 
f 270/309/270 302/342/302 303/343/303 271/310/271 
f 271/310/271 303/343/303 304/344/304 272/311/272 
f 272/311/272 304/344/304 305/345/305 273/312/273 
f 273/312/273 305/345/305 306/346/306 274/313/274 
f 274/313/274 306/346/306 307/347/307 275/314/275 
f 275/314/275 307/347/307 308/348/308 276/315/276 
f 276/315/276 308/348/308 309/349/309 277/316/277 
f 277/316/277 309/349/309 310/350/310 278/317/278 
f 278/317/278 310/350/310 311/351/311 279/318/279 
f 279/318/279 311/351/311 312/352/312 280/319/280 
f 280/319/280 312/352/312 313/353/313 281/320/281 
f 281/320/281 313/353/313 314/354/314 282/321/282 
f 282/321/282 314/354/314 315/355/315 283/322/283 
f 283/322/283 315/355/315 316/356/316 284/323/284 
f 284/323/284 316/356/316 317/357/317 285/324/285 
f 285/324/285 317/357/317 318/358/318 286/325/286 
f 286/325/286 318/358/318 319/359/319 287/326/287 
f 287/326/287 319/359/319 320/360/320 288/327/288 
f 288/327/288 320/360/320 321/361/321 289/328/289 
f 289/328/289 321/361/321 290/362/290 258/329/258 
f 290/330/290 322/363/322 323/364/323 291/331/291 
f 291/331/291 323/364/323 324/365/324 292/332/292 
f 292/332/292 324/365/324 325/366/325 293/333/293 
f 293/333/293 325/366/325 326/367/326 294/334/294 
f 294/334/294 326/367/326 327/368/327 295/335/295 
f 295/335/295 327/368/327 328/369/328 296/336/296 
f 296/336/296 328/369/328 329/370/329 297/337/297 
f 297/337/297 329/370/329 330/371/330 298/338/298 
f 298/338/298 330/371/330 331/372/331 299/339/299 
f 299/339/299 331/372/331 332/373/332 300/340/300 
f 300/340/300 332/373/332 333/374/333 301/341/301 
f 301/341/301 333/374/333 334/375/334 302/342/302 
f 302/342/302 334/375/334 335/376/335 303/343/303 
f 303/343/303 335/376/335 336/377/336 304/344/304 
f 304/344/304 336/377/336 337/378/337 305/345/305 
f 305/345/305 337/378/337 338/379/338 306/346/306 
f 306/346/306 338/379/338 339/380/339 307/347/307 
f 307/347/307 339/380/339 340/381/340 308/348/308 
f 308/348/308 340/381/340 341/382/341 309/349/309 
f 309/349/309 341/382/341 342/383/342 310/350/310 
f 310/350/310 342/383/342 343/384/343 311/351/311 
f 311/351/311 343/384/343 344/385/344 312/352/312 
f 312/352/312 344/385/344 345/386/345 313/353/313 
f 313/353/313 345/386/345 346/387/346 314/354/314 
f 314/354/314 346/387/346 347/388/347 315/355/315 
f 315/355/315 347/388/347 348/389/348 316/356/316 
f 316/356/316 348/389/348 349/390/349 317/357/317 
f 317/357/317 349/390/349 350/391/350 318/358/318 
f 318/358/318 350/391/350 351/392/351 319/359/319 
f 319/359/319 351/392/351 352/393/352 320/360/320 
f 320/360/320 352/393/352 353/394/353 321/361/321 
f 321/361/321 353/394/353 322/395/322 290/362/290 
f 322/363/322 354/396/354 355/397/355 323/364/323 
f 323/364/323 355/397/355 356/398/356 324/365/324 
f 324/365/324 356/398/356 357/399/357 325/366/325 
f 325/366/325 357/399/357 358/400/358 326/367/326 
f 326/367/326 358/400/358 359/401/359 327/368/327 
f 327/368/327 359/401/359 360/402/360 328/369/328 
f 328/369/328 360/402/360 361/403/361 329/370/329 
f 329/370/329 361/403/361 362/404/362 330/371/330 
f 330/371/330 362/404/362 363/405/363 331/372/331 
f 331/372/331 363/405/363 364/406/364 332/373/332 
f 332/373/332 364/406/364 365/407/365 333/374/333 
f 333/374/333 365/407/365 366/408/366 334/375/334 
f 334/375/334 366/408/366 367/409/367 335/376/335 
f 335/376/335 367/409/367 368/410/368 336/377/336 
f 336/377/336 368/410/368 369/411/369 337/378/337 
f 337/378/337 369/411/369 370/412/370 338/379/338 
f 338/379/338 370/412/370 371/413/371 339/380/339 
f 339/380/339 371/413/371 372/414/372 340/381/340 
f 340/381/340 372/414/372 373/415/373 341/382/341 
f 341/382/341 373/415/373 374/416/374 342/383/342 
f 342/383/342 374/416/374 375/417/375 343/384/343 
f 343/384/343 375/417/375 376/418/376 344/385/344 
f 344/385/344 376/418/376 377/419/377 345/386/345 
f 345/386/345 377/419/377 378/420/378 346/387/346 
f 346/387/346 378/420/378 379/421/379 347/388/347 
f 347/388/347 379/421/379 380/422/380 348/389/348 
f 348/389/348 380/422/380 381/423/381 349/390/349 
f 349/390/349 381/423/381 382/424/382 350/391/350 
f 350/391/350 382/424/382 383/425/383 351/392/351 
f 351/392/351 383/425/383 384/426/384 352/393/352 
f 352/393/352 384/426/384 385/427/385 353/394/353 
f 353/394/353 385/427/385 354/428/354 322/395/322 
f 354/396/354 386/429/386 387/430/387 355/397/355 
f 355/397/355 387/430/387 388/431/388 356/398/356 
f 356/398/356 388/431/388 389/432/389 357/399/357 
f 357/399/357 389/432/389 390/433/390 358/400/358 
f 358/400/358 390/433/390 391/434/391 359/401/359 
f 359/401/359 391/434/391 392/435/392 360/402/360 
f 360/402/360 392/435/392 393/436/393 361/403/361 
f 361/403/361 393/436/393 394/437/394 362/404/362 
f 362/404/362 394/437/394 395/438/395 363/405/363 
f 363/405/363 395/438/395 396/439/396 364/406/364 
f 364/406/364 396/439/396 397/440/397 365/407/365 
f 365/407/365 397/440/397 398/441/398 366/408/366 
f 366/408/366 398/441/398 399/442/399 367/409/367 
f 367/409/367 399/442/399 400/443/400 368/410/368 
f 368/410/368 400/443/400 401/444/401 369/411/369 
f 369/411/369 401/444/401 402/445/402 370/412/370 
f 370/412/370 402/445/402 403/446/403 371/413/371 
f 371/413/371 403/446/403 404/447/404 372/414/372 
f 372/414/372 404/447/404 405/448/405 373/415/373 
f 373/415/373 405/448/405 406/449/406 374/416/374 
f 374/416/374 406/449/406 407/450/407 375/417/375 
f 375/417/375 407/450/407 408/451/408 376/418/376 
f 376/418/376 408/451/408 409/452/409 377/419/377 
f 377/419/377 409/452/409 410/453/410 378/420/378 
f 378/420/378 410/453/410 411/454/411 379/421/379 
f 379/421/379 411/454/411 412/455/412 380/422/380 
f 380/422/380 412/455/412 413/456/413 381/423/381 
f 381/423/381 413/456/413 414/457/414 382/424/382 
f 382/424/382 414/457/414 415/458/415 383/425/383 
f 383/425/383 415/458/415 416/459/416 384/426/384 
f 384/426/384 416/459/416 417/460/417 385/427/385 
f 385/427/385 417/460/417 386/461/386 354/428/354 
f 386/429/386 418/462/418 419/463/419 387/430/387 
f 387/430/387 419/463/419 420/464/420 388/431/388 
f 388/431/388 420/464/420 421/465/421 389/432/389 
f 389/432/389 421/465/421 422/466/422 390/433/390 
f 390/433/390 422/466/422 423/467/423 391/434/391 
f 391/434/391 423/467/423 424/468/424 392/435/392 
f 392/435/392 424/468/424 425/469/425 393/436/393 
f 393/436/393 425/469/425 426/470/426 394/437/394 
f 394/437/394 426/470/426 427/471/427 395/438/395 
f 395/438/395 427/471/427 428/472/428 396/439/396 
f 396/439/396 428/472/428 429/473/429 397/440/397 
f 397/440/397 429/473/429 430/474/430 398/441/398 
f 398/441/398 430/474/430 431/475/431 399/442/399 
f 399/442/399 431/475/431 432/476/432 400/443/400 
f 400/443/400 432/476/432 433/477/433 401/444/401 
f 401/444/401 433/477/433 434/478/434 402/445/402 
f 402/445/402 434/478/434 435/479/435 403/446/403 
f 403/446/403 435/479/435 436/480/436 404/447/404 
f 404/447/404 436/480/436 437/481/437 405/448/405 
f 405/448/405 437/481/437 438/482/438 406/449/406 
f 406/449/406 438/482/438 439/483/439 407/450/407 
f 407/450/407 439/483/439 440/484/440 408/451/408 
f 408/451/408 440/484/440 441/485/441 409/452/409 
f 409/452/409 441/485/441 442/486/442 410/453/410 
f 410/453/410 442/486/442 443/487/443 411/454/411 
f 411/454/411 443/487/443 444/488/444 412/455/412 
f 412/455/412 444/488/444 445/489/445 413/456/413 
f 413/456/413 445/489/445 446/490/446 414/457/414 
f 414/457/414 446/490/446 447/491/447 415/458/415 
f 415/458/415 447/491/447 448/492/448 416/459/416 
f 416/459/416 448/492/448 449/493/449 417/460/417 
f 417/460/417 449/493/449 418/494/418 386/461/386 
f 418/462/418 450/495/450 451/496/451 419/463/419 
f 419/463/419 451/496/451 452/497/452 420/464/420 
f 420/464/420 452/497/452 453/498/453 421/465/421 
f 421/465/421 453/498/453 454/499/454 422/466/422 
f 422/466/422 454/499/454 455/500/455 423/467/423 
f 423/467/423 455/500/455 456/501/456 424/468/424 
f 424/468/424 456/501/456 457/502/457 425/469/425 
f 425/469/425 457/502/457 458/503/458 426/470/426 
f 426/470/426 458/503/458 459/504/459 427/471/427 
f 427/471/427 459/504/459 460/505/460 428/472/428 
f 428/472/428 460/505/460 461/506/461 429/473/429 
f 429/473/429 461/506/461 462/507/462 430/474/430 
f 430/474/430 462/507/462 463/508/463 431/475/431 
f 431/475/431 463/508/463 464/509/464 432/476/432 
f 432/476/432 464/509/464 465/510/465 433/477/433 
f 433/477/433 465/510/465 466/511/466 434/478/434 
f 434/478/434 466/511/466 467/512/467 435/479/435 
f 435/479/435 467/512/467 468/513/468 436/480/436 
f 436/480/436 468/513/468 469/514/469 437/481/437 
f 437/481/437 469/514/469 470/515/470 438/482/438 
f 438/482/438 470/515/470 471/516/471 439/483/439 
f 439/483/439 471/516/471 472/517/472 440/484/440 
f 440/484/440 472/517/472 473/518/473 441/485/441 
f 441/485/441 473/518/473 474/519/474 442/486/442 
f 442/486/442 474/519/474 475/520/475 443/487/443 
f 443/487/443 475/520/475 476/521/476 444/488/444 
f 444/488/444 476/521/476 477/522/477 445/489/445 
f 445/489/445 477/522/477 478/523/478 446/490/446 
f 446/490/446 478/523/478 479/524/479 447/491/447 
f 447/491/447 479/524/479 480/525/480 448/492/448 
f 448/492/448 480/525/480 481/526/481 449/493/449 
f 449/493/449 481/526/481 450/527/450 418/494/418 
f 482/528/482 451/496/451 450/495/450 
f 482/529/482 452/497/452 451/496/451 
f 482/530/482 453/498/453 452/497/452 
f 482/531/482 454/499/454 453/498/453 
f 482/532/482 455/500/455 454/499/454 
f 482/533/482 456/501/456 455/500/455 
f 482/534/482 457/502/457 456/501/456 
f 482/535/482 458/503/458 457/502/457 
f 482/536/482 459/504/459 458/503/458 
f 482/537/482 460/505/460 459/504/459 
f 482/538/482 461/506/461 460/505/460 
f 482/539/482 462/507/462 461/506/461 
f 482/540/482 463/508/463 462/507/462 
f 482/541/482 464/509/464 463/508/463 
f 482/542/482 465/510/465 464/509/464 
f 482/543/482 466/511/466 465/510/465 
f 482/544/482 467/512/467 466/511/466 
f 482/545/482 468/513/468 467/512/467 
f 482/546/482 469/514/469 468/513/468 
f 482/547/482 470/515/470 469/514/469 
f 482/548/482 471/516/471 470/515/470 
f 482/549/482 472/517/472 471/516/471 
f 482/550/482 473/518/473 472/517/472 
f 482/551/482 474/519/474 473/518/473 
f 482/552/482 475/520/475 474/519/474 
f 482/553/482 476/521/476 475/520/475 
f 482/554/482 477/522/477 476/521/476 
f 482/555/482 478/523/478 477/522/477 
f 482/556/482 479/524/479 478/523/478 
f 482/557/482 480/525/480 479/524/479 
f 482/558/482 481/526/481 480/525/480 
f 482/559/482 450/527/450 481/526/481 
# 448 polygons - 64 triangles

#
# object Pupil
#

v  0.0000 0.0000 0.1870
v  0.0249 0.0209 0.1870
v  0.0306 0.0111 0.1870
v  0.0326 0.0000 0.1870
v  0.0057 0.0321 0.1870
v  0.0163 0.0282 0.1870
v  -0.0163 0.0282 0.1870
v  -0.0057 0.0321 0.1870
v  -0.0306 0.0111 0.1870
v  -0.0249 0.0209 0.1870
v  -0.0306 -0.0111 0.1870
v  -0.0326 0.0000 0.1870
v  -0.0163 -0.0282 0.1870
v  -0.0249 -0.0209 0.1870
v  0.0057 -0.0321 0.1870
v  -0.0057 -0.0321 0.1870
v  0.0249 -0.0209 0.1870
v  0.0163 -0.0282 0.1870
v  0.0306 -0.0111 0.1870
# 19 vertices

vn 0.0000 0.0000 -1.0000
vn 1.0000 0.0000 -0.0000
vn 0.0000 -0.0000 1.0000
# 3 vertex normals

vt 0.5000 0.0000 0.0000
vt 0.8611 0.0000 1.0000
vt 0.8056 0.0000 1.0000
vt 0.7500 0.0000 1.0000
vt 0.9722 0.0000 1.0000
vt 0.9167 0.0000 1.0000
vt 0.0833 0.0000 1.0000
vt 0.0278 0.0000 1.0000
vt -0.0278 0.0000 1.0000
vt 0.1944 0.0000 1.0000
vt 0.1389 0.0000 1.0000
vt 0.3056 0.0000 1.0000
vt 0.2500 0.0000 1.0000
vt 0.4167 0.0000 1.0000
vt 0.3611 0.0000 1.0000
vt 0.5278 0.0000 1.0000
vt 0.4722 0.0000 1.0000
vt 0.6389 0.0000 1.0000
vt 0.5833 0.0000 1.0000
vt 0.6944 0.0000 1.0000
vt -0.0197 0.0000 0.8794
# 21 texture coords

g Pupil
s 1
f 483/560/483 484/561/483 485/562/483 486/563/483 
f 483/560/483 487/564/483 488/565/483 484/561/483 
f 483/560/483 489/566/483 490/567/483 487/568/483 
f 483/560/483 491/569/483 492/570/483 489/566/483 
f 483/560/483 493/571/483 494/572/483 491/569/483 
f 483/560/483 495/573/483 496/574/483 493/571/483 
f 483/560/483 497/575/483 498/576/483 495/573/483 
f 483/560/483 499/577/483 500/578/483 497/575/483 
f 483/560/483 486/563/483 501/579/483 499/577/483 
s 8
f 486/563/484 485/562/484 485/562/484 486/563/484 
f 485/562/484 484/561/484 484/561/484 485/562/484 
f 484/561/484 488/565/484 488/565/484 484/561/484 
f 488/565/484 487/564/484 487/564/484 488/565/484 
f 487/568/484 490/567/484 490/567/484 487/568/484 
f 490/567/484 489/566/484 489/566/484 490/567/484 
f 489/566/484 492/570/484 492/570/484 489/566/484 
f 492/570/484 491/569/484 491/569/484 492/570/484 
f 491/569/484 494/572/484 494/572/484 491/569/484 
f 494/572/484 493/571/484 493/571/484 494/572/484 
f 493/571/484 496/574/484 496/574/484 493/571/484 
f 496/574/484 495/573/484 495/573/484 496/574/484 
f 495/573/484 498/576/484 498/576/484 495/573/484 
f 498/576/484 497/575/484 497/575/484 498/576/484 
f 497/575/484 500/578/484 500/578/484 497/575/484 
f 500/578/484 499/577/484 499/577/484 500/578/484 
f 499/577/484 501/579/484 501/579/484 499/577/484 
f 501/579/484 486/563/484 486/563/484 501/579/484 
f 486/563/484 485/562/484 485/562/484 486/563/484 
f 485/562/484 484/561/484 484/561/484 485/562/484 
f 484/561/484 488/565/484 488/565/484 484/561/484 
f 488/565/484 487/564/484 487/564/484 488/565/484 
f 487/568/484 490/567/484 490/567/484 487/568/484 
f 490/567/484 489/566/484 489/566/484 490/567/484 
f 489/566/484 492/570/484 492/570/484 489/566/484 
f 492/570/484 491/569/484 491/569/484 492/570/484 
f 491/569/484 494/572/484 494/572/484 491/569/484 
f 494/572/484 493/571/484 493/571/484 494/572/484 
f 493/571/484 496/574/484 496/574/484 493/571/484 
f 496/574/484 495/573/484 495/573/484 496/574/484 
f 495/573/484 498/576/484 498/576/484 495/573/484 
f 498/576/484 497/575/484 497/575/484 498/576/484 
f 497/575/484 500/578/484 500/578/484 497/575/484 
f 500/578/484 499/577/484 499/577/484 500/578/484 
f 499/577/484 501/579/484 501/579/484 499/577/484 
f 501/579/484 486/563/484 486/563/484 501/579/484 
f 486/563/484 485/562/484 485/562/484 486/563/484 
f 485/562/484 484/561/484 484/561/484 485/562/484 
f 484/561/484 488/565/484 488/565/484 484/561/484 
f 488/565/484 487/564/484 487/564/484 488/565/484 
f 487/568/484 490/567/484 490/567/484 487/568/484 
f 490/567/484 489/566/484 489/566/484 490/567/484 
f 489/566/484 492/570/484 492/570/484 489/566/484 
f 492/570/484 491/569/484 491/569/484 492/570/484 
f 491/569/484 494/572/484 494/572/484 491/569/484 
f 494/572/484 493/571/484 493/571/484 494/572/484 
f 493/571/484 496/574/484 496/574/484 493/571/484 
f 496/574/484 495/573/484 495/573/484 496/574/484 
f 495/573/484 498/576/484 498/576/484 495/573/484 
f 498/576/484 497/575/484 497/575/484 498/576/484 
f 497/575/484 500/578/484 500/578/484 497/575/484 
f 500/578/484 499/577/484 499/577/484 500/578/484 
f 499/577/484 501/579/484 501/579/484 499/577/484 
f 501/579/484 486/563/484 486/563/484 501/579/484 
f 486/563/484 485/562/484 485/562/484 486/563/484 
f 485/562/484 484/561/484 484/561/484 485/562/484 
f 484/561/484 488/565/484 488/565/484 484/561/484 
f 488/565/484 487/564/484 487/564/484 488/565/484 
f 487/568/484 490/567/484 490/567/484 487/568/484 
f 490/567/484 489/566/484 489/566/484 490/567/484 
f 489/566/484 492/570/484 492/570/484 489/566/484 
f 492/570/484 491/569/484 491/569/484 492/570/484 
f 491/569/484 494/572/484 494/572/484 491/569/484 
f 494/572/484 493/571/484 493/571/484 494/572/484 
f 493/571/484 496/574/484 496/574/484 493/571/484 
f 496/574/484 495/573/484 495/573/484 496/574/484 
f 495/573/484 498/576/484 498/576/484 495/573/484 
f 498/576/484 497/575/484 497/575/484 498/576/484 
f 497/575/484 500/578/484 500/578/484 497/575/484 
f 500/578/484 499/577/484 499/577/484 500/578/484 
f 499/577/484 501/579/484 501/579/484 499/577/484 
f 501/579/484 486/563/484 486/563/484 501/579/484 
f 486/563/484 485/562/484 485/562/484 486/563/484 
f 485/562/484 484/561/484 484/561/484 485/562/484 
f 484/561/484 488/565/484 488/565/484 484/561/484 
f 488/565/484 487/564/484 487/564/484 488/565/484 
f 487/568/484 490/567/484 490/567/484 487/568/484 
f 490/567/484 489/566/484 489/566/484 490/567/484 
f 489/566/484 492/570/484 492/570/484 489/566/484 
f 492/570/484 491/569/484 491/569/484 492/570/484 
f 491/569/484 494/572/484 494/572/484 491/569/484 
f 494/572/484 493/571/484 493/571/484 494/572/484 
f 493/571/484 496/574/484 496/574/484 493/571/484 
f 496/574/484 495/573/484 495/573/484 496/574/484 
f 495/573/484 498/576/484 498/576/484 495/573/484 
f 498/576/484 497/575/484 497/575/484 498/576/484 
f 497/575/484 500/578/484 500/578/484 497/575/484 
f 500/578/484 499/577/484 499/577/484 500/578/484 
f 499/577/484 501/579/484 501/579/484 499/577/484 
f 501/579/484 486/563/484 486/563/484 501/579/484 
s 1
f 483/560/485 501/579/485 486/563/485 485/562/485 
f 483/560/485 485/562/485 484/561/485 488/565/485 
f 483/560/485 488/580/485 487/568/485 490/567/485 
f 483/560/485 490/567/485 489/566/485 492/570/485 
f 483/560/485 492/570/485 491/569/485 494/572/485 
f 483/560/485 494/572/485 493/571/485 496/574/485 
f 483/560/485 496/574/485 495/573/485 498/576/485 
f 483/560/485 498/576/485 497/575/485 500/578/485 
f 483/560/485 500/578/485 499/577/485 501/579/485 
# 108 polygons

