# 3ds Max Wavefront OBJ Exporter v0.97b - (c)2007 guruware
# File Created: 22.01.2017 13:25:21

#
# object Eye_L
#

v  -0.0000 0.2435 0.0062
v  0.1281 0.2072 0.0055
v  0.0398 0.2103 -0.1165
v  0.2179 0.1089 0.0032
v  0.1679 0.1311 -0.1182
v  0.0677 0.1142 -0.2043
v  -0.1035 0.2091 -0.0702
v  -0.0637 0.1330 -0.1939
v  -0.1760 0.1122 -0.1256
v  -0.1038 0.2053 0.0803
v  -0.2073 0.1280 0.0028
v  -0.1766 0.1057 0.1304
v  0.0393 0.2041 0.1271
v  -0.0644 0.1231 0.2001
v  0.0669 0.1037 0.2101
v  0.1674 0.1250 0.1253
v  0.2315 -0.0019 0.0757
v  0.2318 0.0019 -0.0748
v  0.1760 -0.1122 0.1256
v  0.2072 -0.1280 -0.0028
v  0.1765 -0.1057 -0.1304
v  0.1436 0.0050 -0.1967
v  0.0005 0.0062 -0.2435
v  0.0644 -0.1231 -0.2001
v  -0.0669 -0.1037 -0.2101
v  -0.1428 0.0050 -0.1973
v  -0.2316 0.0019 -0.0757
v  -0.1674 -0.1250 -0.1253
v  -0.2179 -0.1089 -0.0032
v  -0.2319 -0.0019 0.0748
v  -0.1436 -0.0050 0.1967
v  -0.1679 -0.1311 0.1182
v  -0.0677 -0.1142 0.2043
v  -0.0005 -0.0062 0.2435
v  0.1428 -0.0050 0.1973
v  0.0637 -0.1330 0.1939
v  0.0000 -0.2435 -0.0062
v  -0.0393 -0.2041 -0.1271
v  0.1038 -0.2053 -0.0803
v  -0.1281 -0.2072 -0.0055
v  -0.0398 -0.2103 0.1165
v  0.1035 -0.2091 0.0702
# 42 vertices

vn -0.0001 0.9997 0.0253
vn 0.5257 0.8504 0.0225
vn 0.1634 0.8630 -0.4780
vn 0.8944 0.4471 0.0131
vn 0.6892 0.5382 -0.4852
vn 0.2781 0.4686 -0.8385
vn -0.4248 0.8582 -0.2883
vn -0.2613 0.5460 -0.7960
vn -0.7226 0.4604 -0.5157
vn -0.4260 0.8426 0.3296
vn -0.8507 0.5256 0.0116
vn -0.7247 0.4338 0.5354
vn 0.1614 0.8377 0.5217
vn -0.2645 0.5051 0.8215
vn 0.2747 0.4256 0.8622
vn 0.6872 0.5129 0.5145
vn 0.9504 -0.0078 0.3108
vn 0.9517 0.0078 -0.3070
vn 0.7226 -0.4604 0.5157
vn 0.8507 -0.5256 -0.0116
vn 0.7247 -0.4338 -0.5354
vn 0.5894 0.0204 -0.8076
vn 0.0020 0.0253 -0.9997
vn 0.2645 -0.5051 -0.8215
vn -0.2747 -0.4256 -0.8622
vn -0.5862 0.0204 -0.8099
vn -0.9504 0.0078 -0.3108
vn -0.6872 -0.5129 -0.5145
vn -0.8944 -0.4471 -0.0131
vn -0.9517 -0.0078 0.3070
vn -0.5894 -0.0204 0.8076
vn -0.6892 -0.5382 0.4852
vn -0.2781 -0.4686 0.8385
vn -0.0020 -0.0253 0.9997
vn 0.5862 -0.0204 0.8099
vn 0.2613 -0.5460 0.7960
vn 0.0001 -0.9997 -0.0253
vn -0.1614 -0.8377 -0.5217
vn 0.4260 -0.8426 -0.3296
vn -0.5257 -0.8504 -0.0225
vn -0.1634 -0.8630 0.4780
vn 0.4248 -0.8582 0.2883
# 42 vertex normals

vt 0.6000 1.0000 24.1147
vt 0.5000 0.8238 24.1147
vt 0.7000 0.8238 24.1147
vt 0.5000 0.6476 24.1147
vt 0.6000 0.6762 24.1147
vt 0.7000 0.6476 24.1147
vt 0.8000 1.0000 24.1147
vt 0.9000 0.8238 24.1147
vt 0.8000 0.6762 24.1147
vt 0.9000 0.6476 24.1147
vt 0.0000 1.0000 24.1147
vt -0.1000 0.8238 24.1147
vt 0.1000 0.8238 24.1147
vt -0.1000 0.6476 24.1147
vt 0.0000 0.6762 24.1147
vt 0.1000 0.6476 24.1147
vt 0.2000 1.0000 24.1147
vt 0.3000 0.8238 24.1147
vt 0.2000 0.6762 24.1147
vt 0.3000 0.6476 24.1147
vt 0.4000 1.0000 24.1147
vt 0.4000 0.6762 24.1147
vt 0.4500 0.5000 24.1147
vt 0.5500 0.5000 24.1147
vt 0.4000 0.3524 24.1147
vt 0.5000 0.3238 24.1147
vt 0.6000 0.3524 24.1147
vt 0.6500 0.5000 24.1147
vt 0.7500 0.5000 24.1147
vt 0.7000 0.3238 24.1147
vt 0.8000 0.3524 24.1147
vt 0.8500 0.5000 24.1147
vt 0.9500 0.5000 24.1147
vt 0.9000 0.3238 24.1147
vt -0.0500 0.5000 24.1147
vt -0.1000 0.3238 24.1147
vt 0.0000 0.3524 24.1147
vt 0.0500 0.5000 24.1147
vt 0.1500 0.5000 24.1147
vt 0.1000 0.3238 24.1147
vt 0.2000 0.3524 24.1147
vt 0.2500 0.5000 24.1147
vt 0.3500 0.5000 24.1147
vt 0.3000 0.3238 24.1147
vt 0.7000 0.0000 24.1147
vt 0.8000 0.1762 24.1147
vt 0.6000 0.1762 24.1147
vt -0.1000 0.0000 24.1147
vt 0.0000 0.1762 24.1147
vt -0.2000 0.1762 24.1147
vt 0.1000 0.0000 24.1147
vt 0.2000 0.1762 24.1147
vt 0.3000 0.0000 24.1147
vt 0.4000 0.1762 24.1147
vt 0.5000 0.0000 24.1147
# 55 texture coords

g Eye_L
s 1
f 1/1/1 2/2/2 3/3/3 
f 2/2/2 4/4/4 5/5/5 
f 2/2/2 5/5/5 3/3/3 
f 3/3/3 5/5/5 6/6/6 
f 1/7/1 3/3/3 7/8/7 
f 3/3/3 6/6/6 8/9/8 
f 3/3/3 8/9/8 7/8/7 
f 7/8/7 8/9/8 9/10/9 
f 1/11/1 7/12/7 10/13/10 
f 7/12/7 9/14/9 11/15/11 
f 7/12/7 11/15/11 10/13/10 
f 10/13/10 11/15/11 12/16/12 
f 1/17/1 10/13/10 13/18/13 
f 10/13/10 12/16/12 14/19/14 
f 10/13/10 14/19/14 13/18/13 
f 13/18/13 14/19/14 15/20/15 
f 1/21/1 13/18/13 2/2/2 
f 13/18/13 15/20/15 16/22/16 
f 13/18/13 16/22/16 2/2/2 
f 2/2/2 16/22/16 4/4/4 
f 4/4/4 17/23/17 18/24/18 
f 17/23/17 19/25/19 20/26/20 
f 17/23/17 20/26/20 18/24/18 
f 18/24/18 20/26/20 21/27/21 
f 6/6/6 22/28/22 23/29/23 
f 22/28/22 21/27/21 24/30/24 
f 22/28/22 24/30/24 23/29/23 
f 23/29/23 24/30/24 25/31/25 
f 9/10/9 26/32/26 27/33/27 
f 26/32/26 25/31/25 28/34/28 
f 26/32/26 28/34/28 27/33/27 
f 27/35/27 28/36/28 29/37/29 
f 12/16/12 30/38/30 31/39/31 
f 30/38/30 29/37/29 32/40/32 
f 30/38/30 32/40/32 31/39/31 
f 31/39/31 32/40/32 33/41/33 
f 15/20/15 34/42/34 35/43/35 
f 34/42/34 33/41/33 36/44/36 
f 34/42/34 36/44/36 35/43/35 
f 35/43/35 36/44/36 19/25/19 
f 21/27/21 22/28/22 18/24/18 
f 22/28/22 6/6/6 5/5/5 
f 22/28/22 5/5/5 18/24/18 
f 18/24/18 5/5/5 4/4/4 
f 25/31/25 26/32/26 23/29/23 
f 26/32/26 9/10/9 8/9/8 
f 26/32/26 8/9/8 23/29/23 
f 23/29/23 8/9/8 6/6/6 
f 29/37/29 30/38/30 27/35/27 
f 30/38/30 12/16/12 11/15/11 
f 30/38/30 11/15/11 27/35/27 
f 27/35/27 11/15/11 9/14/9 
f 33/41/33 34/42/34 31/39/31 
f 34/42/34 15/20/15 14/19/14 
f 34/42/34 14/19/14 31/39/31 
f 31/39/31 14/19/14 12/16/12 
f 19/25/19 17/23/17 35/43/35 
f 17/23/17 4/4/4 16/22/16 
f 17/23/17 16/22/16 35/43/35 
f 35/43/35 16/22/16 15/20/15 
f 37/45/37 38/46/38 39/47/39 
f 38/46/38 25/31/25 24/30/24 
f 38/46/38 24/30/24 39/47/39 
f 39/47/39 24/30/24 21/27/21 
f 37/48/37 40/49/40 38/50/38 
f 40/49/40 29/37/29 28/36/28 
f 40/49/40 28/36/28 38/50/38 
f 38/46/38 28/34/28 25/31/25 
f 37/51/37 41/52/41 40/49/40 
f 41/52/41 33/41/33 32/40/32 
f 41/52/41 32/40/32 40/49/40 
f 40/49/40 32/40/32 29/37/29 
f 37/53/37 42/54/42 41/52/41 
f 42/54/42 19/25/19 36/44/36 
f 42/54/42 36/44/36 41/52/41 
f 41/52/41 36/44/36 33/41/33 
f 37/55/37 39/47/39 42/54/42 
f 39/47/39 21/27/21 20/26/20 
f 39/47/39 20/26/20 42/54/42 
f 42/54/42 20/26/20 19/25/19 
# 0 polygons - 80 triangles

#
# object Pupil_L
#

v  0.0728 -0.0048 0.1896
v  0.0684 0.0202 0.1902
v  0.0683 0.0192 0.2303
v  0.0727 -0.0058 0.2297
v  0.0557 0.0422 0.1908
v  0.0556 0.0412 0.2309
v  0.0362 0.0586 0.1911
v  0.0361 0.0575 0.2312
v  0.0123 0.0673 0.1913
v  0.0122 0.0662 0.2314
v  -0.0131 0.0673 0.1912
v  -0.0132 0.0662 0.2314
v  -0.0370 0.0586 0.1910
v  -0.0371 0.0575 0.2311
v  -0.0564 0.0422 0.1905
v  -0.0565 0.0412 0.2306
v  -0.0691 0.0202 0.1899
v  -0.0692 0.0192 0.2301
v  -0.0736 -0.0048 0.1893
v  -0.0736 -0.0058 0.2294
v  -0.0691 -0.0298 0.1887
v  -0.0692 -0.0308 0.2288
v  -0.0564 -0.0518 0.1882
v  -0.0565 -0.0528 0.2283
v  -0.0370 -0.0681 0.1878
v  -0.0370 -0.0692 0.2279
v  -0.0131 -0.0768 0.1876
v  -0.0132 -0.0778 0.2277
v  0.0123 -0.0768 0.1877
v  0.0123 -0.0778 0.2278
v  0.0362 -0.0681 0.1879
v  0.0361 -0.0692 0.2280
v  0.0557 -0.0518 0.1884
v  0.0556 -0.0528 0.2285
v  0.0684 -0.0298 0.1890
v  0.0683 -0.0308 0.2291
v  0.0287 0.0045 0.2410
v  0.0233 0.0138 0.2413
v  0.0150 0.0208 0.2414
v  0.0287 -0.0167 0.2405
v  0.0049 0.0245 0.2415
v  -0.0059 0.0245 0.2415
v  -0.0242 0.0138 0.2412
v  -0.0160 0.0208 0.2414
v  -0.0296 0.0045 0.2409
v  -0.0315 -0.0061 0.2407
v  -0.0242 -0.0260 0.2402
v  -0.0296 -0.0167 0.2404
v  -0.0160 -0.0329 0.2400
v  -0.0059 -0.0366 0.2399
v  0.0150 -0.0329 0.2401
v  0.0049 -0.0366 0.2400
v  0.0233 -0.0260 0.2403
v  0.0305 -0.0061 0.2408
# 54 vertices

vn 1.0000 0.0000 0.0020
vn 0.9397 0.3419 0.0105
vn 0.7660 0.6426 0.0178
vn 0.5000 0.8658 0.0229
vn 0.1736 0.9845 0.0252
vn -0.1737 0.9845 0.0245
vn -0.5000 0.8657 0.0209
vn -0.7661 0.6426 0.0147
vn -0.9397 0.3419 0.0068
vn -1.0000 -0.0000 -0.0020
vn -0.9397 -0.3419 -0.0105
vn -0.7660 -0.6426 -0.0178
vn -0.5000 -0.8658 -0.0229
vn -0.1736 -0.9845 -0.0252
vn 0.1737 -0.9845 -0.0245
vn 0.5000 -0.8657 -0.0209
vn 0.7661 -0.6426 -0.0147
vn 0.9397 -0.3419 -0.0068
vn 0.0020 0.0253 -0.9997
vn 0.1653 0.0360 0.9856
vn 0.1344 0.0895 0.9869
vn 0.0870 0.1292 0.9878
vn 0.1653 -0.0857 0.9825
vn 0.0289 0.1504 0.9882
vn -0.0329 0.1504 0.9881
vn -0.1383 0.0895 0.9863
vn -0.0910 0.1292 0.9874
vn -0.1692 0.0360 0.9849
vn -0.1800 -0.0249 0.9834
vn -0.1383 -0.1393 0.9806
vn -0.1692 -0.0857 0.9818
vn -0.0909 -0.1790 0.9796
vn -0.0329 -0.2001 0.9792
vn 0.0871 -0.1790 0.9800
vn 0.0290 -0.2001 0.9793
vn 0.1344 -0.1393 0.9811
vn 0.1761 -0.0249 0.9841
vn 0.3154 -0.0240 0.9487
vn 0.2962 0.0845 0.9514
vn 0.2411 0.1799 0.9537
vn 0.1567 0.2507 0.9553
vn 0.0532 0.2884 0.9560
vn -0.0570 0.2884 0.9558
vn -0.1605 0.2507 0.9547
vn -0.2449 0.1799 0.9527
vn -0.3000 0.0845 0.9502
vn -0.3191 -0.0240 0.9474
vn -0.3000 -0.1324 0.9447
vn -0.2449 -0.2278 0.9424
vn -0.1605 -0.2986 0.9408
vn -0.0570 -0.3363 0.9400
vn 0.0532 -0.3363 0.9402
vn 0.1568 -0.2986 0.9414
vn 0.2412 -0.2278 0.9434
vn 0.2962 -0.1324 0.9459
# 55 vertex normals

vt 1.0000 0.5000 -0.0000
vt 0.9698 0.6736 -0.0000
vt 0.9698 0.6736 0.7825
vt 1.0000 0.5000 0.7825
vt 0.8830 0.8264 -0.0000
vt 0.8830 0.8264 0.7825
vt 0.7500 0.9397 -0.0000
vt 0.7500 0.9397 0.7825
vt 0.5868 1.0000 -0.0000
vt 0.5868 1.0000 0.7825
vt 0.4132 1.0000 -0.0000
vt 0.4132 1.0000 0.7825
vt 0.2500 0.9397 -0.0000
vt 0.2500 0.9397 0.7825
vt 0.1170 0.8264 -0.0000
vt 0.1170 0.8264 0.7825
vt 0.0302 0.6736 -0.0000
vt 0.0302 0.6736 0.7825
vt 0.0000 0.5000 -0.0000
vt 0.0000 0.5000 0.7825
vt 0.0302 0.3264 -0.0000
vt 0.0302 0.3264 0.7825
vt 0.1170 0.1736 -0.0000
vt 0.1170 0.1736 0.7825
vt 0.2500 0.0603 -0.0000
vt 0.2500 0.0603 0.7825
vt 0.4132 0.0000 -0.0000
vt 0.4132 0.0000 0.7825
vt 0.5868 -0.0000 -0.0000
vt 0.5868 -0.0000 0.7825
vt 0.7500 0.0603 -0.0000
vt 0.7500 0.0603 0.7825
vt 0.8830 0.1736 -0.0000
vt 0.8830 0.1736 0.7825
vt 0.9698 0.3264 -0.0000
vt 0.9698 0.3264 0.7825
vt 0.6992 0.5736 1.0000
vt 0.6624 0.6383 1.0000
vt 0.6060 0.6864 1.0000
vt 0.6992 0.4264 1.0000
vt 0.5368 0.7120 1.0000
vt 0.4632 0.7120 1.0000
vt 0.3376 0.6383 1.0000
vt 0.3940 0.6864 1.0000
vt 0.3008 0.5736 1.0000
vt 0.2880 0.5000 1.0000
vt 0.3376 0.3617 1.0000
vt 0.3008 0.4264 1.0000
vt 0.3940 0.3136 1.0000
vt 0.4632 0.2880 1.0000
vt 0.6060 0.3136 1.0000
vt 0.5368 0.2880 1.0000
vt 0.6624 0.3617 1.0000
vt 0.7120 0.5000 1.0000
# 54 texture coords

g Pupil_L
s 1
f 43/56/43 44/57/44 45/58/44 46/59/43 
f 44/57/44 47/60/45 48/61/45 45/58/44 
f 47/60/45 49/62/46 50/63/46 48/61/45 
f 49/62/46 51/64/47 52/65/47 50/63/46 
f 51/64/47 53/66/48 54/67/48 52/65/47 
f 53/66/48 55/68/49 56/69/49 54/67/48 
f 55/68/49 57/70/50 58/71/50 56/69/49 
f 57/70/50 59/72/51 60/73/51 58/71/50 
f 59/72/51 61/74/52 62/75/52 60/73/51 
f 61/74/52 63/76/53 64/77/53 62/75/52 
f 63/76/53 65/78/54 66/79/54 64/77/53 
f 65/78/54 67/80/55 68/81/55 66/79/54 
f 67/80/55 69/82/56 70/83/56 68/81/55 
f 69/82/56 71/84/57 72/85/57 70/83/56 
f 71/84/57 73/86/58 74/87/58 72/85/57 
f 73/86/58 75/88/59 76/89/59 74/87/58 
f 75/88/59 77/90/60 78/91/60 76/89/59 
f 77/90/60 43/56/43 46/59/43 78/91/60 
s 2
f 75/88/61 73/86/61 71/84/61 43/56/61 
f 71/84/61 69/82/61 67/80/61 63/76/61 
f 67/80/61 65/78/61 63/76/61 
f 63/76/61 61/74/61 59/72/61 55/68/61 
f 59/72/61 57/70/61 55/68/61 
f 55/68/61 53/66/61 51/64/61 47/60/61 
f 51/64/61 49/62/61 47/60/61 
f 63/76/61 55/68/61 47/60/61 71/84/61 
f 47/60/61 44/57/61 43/56/61 71/84/61 
f 77/90/61 75/88/61 43/56/61 
f 79/92/62 80/93/63 81/94/64 82/95/65 
f 81/94/64 83/96/66 84/97/67 85/98/68 
f 84/97/67 86/99/69 85/98/68 
f 85/98/68 87/100/70 88/101/71 89/102/72 
f 88/101/71 90/103/73 89/102/72 
f 89/102/72 91/104/74 92/105/75 93/106/76 
f 92/105/75 94/107/77 93/106/76 
f 85/98/68 89/102/72 93/106/76 81/94/64 
f 93/106/76 95/108/78 82/95/65 81/94/64 
f 96/109/79 79/92/62 82/95/65 
f 46/59/80 45/58/81 79/92/62 96/109/79 
f 45/58/81 48/61/82 80/93/63 79/92/62 
f 48/61/82 50/63/83 81/94/64 80/93/63 
f 50/63/83 52/65/84 83/96/66 81/94/64 
f 52/65/84 54/67/85 84/97/67 83/96/66 
f 54/67/85 56/69/86 86/99/69 84/97/67 
f 56/69/86 58/71/87 85/98/68 86/99/69 
f 58/71/87 60/73/88 87/100/70 85/98/68 
f 60/73/88 62/75/89 88/101/71 87/100/70 
f 62/75/89 64/77/90 90/103/73 88/101/71 
f 64/77/90 66/79/91 89/102/72 90/103/73 
f 66/79/91 68/81/92 91/104/74 89/102/72 
f 68/81/92 70/83/93 92/105/75 91/104/74 
f 70/83/93 72/85/94 94/107/77 92/105/75 
f 72/85/94 74/87/95 93/106/76 94/107/77 
f 74/87/95 76/89/96 95/108/78 93/106/76 
f 76/89/96 78/91/97 82/95/65 95/108/78 
f 78/91/97 46/59/80 96/109/79 82/95/65 
# 48 polygons - 8 triangles

